<svg width="488" height="368" viewBox="0 0 488 368" fill="none" xmlns="http://www.w3.org/2000/svg">
<path opacity="0.05" d="M164.012 205.484L157.492 217.177C150.973 228.869 137.933 252.254 150.187 277.678C162.441 303.102 199.989 330.564 192.57 354.402C185.151 378.24 132.766 398.454 130.968 422.745C129.171 447.036 177.96 475.404 202.354 489.589L226.749 503.773" stroke="url(#paint0_linear_999_10508)" stroke-width="2"/>
<path opacity="0.059596" d="M158.911 198.519L152.793 210.268C146.675 222.016 134.439 245.514 147.564 270.825C160.688 296.136 199.171 323.261 192.571 347.161C185.971 371.061 134.287 391.737 133.322 416.04C132.358 440.343 182.112 468.274 206.99 482.24L231.867 496.205" stroke="url(#paint1_linear_999_10508)" stroke-width="2"/>
<path opacity="0.0691919" d="M153.816 191.599L148.102 203.401C142.388 215.202 130.96 238.804 144.95 263.995C158.94 289.185 198.348 315.964 192.568 339.919C186.789 363.875 135.822 385.006 135.691 409.314C135.56 433.622 186.264 461.107 211.617 474.85L236.969 488.592" stroke="url(#paint2_linear_999_10508)" stroke-width="2"/>
<path opacity="0.0787879" d="M148.739 184.725L143.43 196.575C138.122 208.425 127.505 232.126 142.357 257.188C157.208 282.251 197.529 308.675 192.572 332.678C187.614 356.681 137.38 378.262 138.082 402.568C138.785 426.874 190.425 453.904 216.244 467.419L242.064 480.934" stroke="url(#paint3_linear_999_10508)" stroke-width="2"/>
<path opacity="0.0883838" d="M143.671 177.897L138.77 189.792C133.868 201.687 124.066 225.478 139.775 250.405C155.484 275.332 196.704 301.394 192.571 325.438C188.438 349.481 138.951 371.505 140.487 395.801C142.023 420.096 194.581 446.664 220.861 459.948L247.14 473.231" stroke="url(#paint4_linear_999_10508)" stroke-width="2"/>
<path opacity="0.0979798" d="M138.619 171.112L134.126 183.049C129.634 194.986 120.649 218.86 137.21 243.644C153.771 268.427 195.879 294.12 192.571 318.196C189.263 342.273 140.539 364.733 142.908 389.011C145.277 413.289 198.738 439.386 225.469 452.434L252.2 465.483" stroke="url(#paint5_linear_999_10508)" stroke-width="2"/>
<path opacity="0.107576" d="M133.584 164.372L129.501 176.347C125.419 188.322 117.254 212.273 134.663 236.905C152.071 261.538 195.054 286.853 192.572 310.955C190.09 335.057 142.143 357.946 145.345 382.2C148.546 406.453 202.894 432.071 230.068 444.88L257.243 457.689" stroke="url(#paint6_linear_999_10508)" stroke-width="2"/>
<path opacity="0.117172" d="M128.564 157.677L124.892 169.687C121.221 181.697 113.879 205.716 132.13 230.19C150.38 254.665 194.224 279.594 192.569 303.714C190.914 327.834 143.76 351.146 147.792 375.368C151.825 399.589 207.043 424.72 234.653 437.286L262.262 449.852" stroke="url(#paint7_linear_999_10508)" stroke-width="2"/>
<path opacity="0.126768" d="M123.567 151.027L120.308 163.067C117.049 175.108 110.531 199.189 129.619 223.497C148.706 247.805 193.398 272.341 192.571 296.473C191.743 320.604 145.395 344.331 150.258 368.513C155.12 392.695 211.192 417.332 239.228 429.651L267.264 441.969" stroke="url(#paint8_linear_999_10508)" stroke-width="2"/>
<path opacity="0.136364" d="M118.59 144.42L115.745 156.488C112.899 168.556 107.208 192.691 127.126 216.826C147.044 240.961 192.571 265.096 192.571 289.231C192.571 313.366 147.044 337.501 152.735 361.637C158.426 385.772 215.335 409.907 243.789 421.974L272.243 434.042" stroke="url(#paint9_linear_999_10508)" stroke-width="2"/>
<path opacity="0.14596" d="M113.635 137.859L111.204 149.95C108.773 162.041 103.91 186.223 124.653 210.177C145.396 234.132 191.743 257.859 192.571 281.991C193.398 306.122 148.706 330.658 155.224 354.739C161.742 378.82 219.469 402.446 248.333 414.259L277.197 426.072" stroke="url(#paint10_linear_999_10508)" stroke-width="2"/>
<path opacity="0.155556" d="M108.704 131.341L106.688 143.451C104.672 155.562 100.64 179.784 122.201 203.55C143.761 227.317 190.916 250.629 192.571 274.749C194.226 298.87 150.382 323.799 157.724 347.818C165.067 371.837 223.596 394.947 252.86 406.502L282.124 418.057" stroke="url(#paint11_linear_999_10508)" stroke-width="2"/>
<path opacity="0.165152" d="M103.8 124.866L102.199 136.993C100.599 149.12 97.3976 173.373 119.77 196.945C142.143 220.517 190.089 243.406 192.571 267.508C195.053 291.61 152.071 316.925 160.236 340.875C168.401 364.826 227.713 387.412 257.37 398.705L287.026 409.998" stroke="url(#paint12_linear_999_10508)" stroke-width="2"/>
<path opacity="0.174747" d="M98.9205 118.435L97.736 130.574C96.5516 142.713 94.1827 166.992 117.36 190.361C140.538 213.73 189.262 236.19 192.57 260.267C195.878 284.343 153.77 310.036 162.755 333.91C171.741 357.784 231.819 379.84 261.858 390.868L291.897 401.896" stroke="url(#paint13_linear_999_10508)" stroke-width="2"/>
<path opacity="0.184343" d="M94.0733 112.048L93.3053 124.195C92.5373 136.343 91.0014 160.639 114.977 183.799C138.952 206.959 188.439 228.983 192.572 253.026C196.706 277.069 155.485 303.132 165.288 326.923C175.09 350.713 235.915 372.233 266.328 382.992L296.741 393.752" stroke="url(#paint14_linear_999_10508)" stroke-width="2"/>
<path opacity="0.193939" d="M89.2522 105.703L88.9009 117.856C88.5496 130.009 87.8471 154.315 112.613 177.258C137.379 200.201 187.614 221.782 192.571 245.785C197.528 269.788 157.208 296.213 167.824 319.913C178.441 343.613 239.995 364.589 270.772 375.077L301.549 385.564" stroke="url(#paint15_linear_999_10508)" stroke-width="2"/>
<path opacity="0.203535" d="M84.461 99.4005L84.5266 111.555C84.5921 123.709 84.7232 148.017 110.272 170.737C135.821 193.457 186.788 214.588 192.568 238.543C198.347 262.499 158.939 289.278 170.367 312.88C181.795 336.482 244.059 356.908 275.191 367.121L306.323 377.333" stroke="url(#paint16_linear_999_10508)" stroke-width="2"/>
<path opacity="0.213131" d="M79.7085 93.1404L80.1908 105.292C80.6732 117.444 81.6378 141.747 107.962 164.236C134.286 186.726 185.97 207.402 192.57 231.302C199.17 255.202 160.687 282.327 172.922 305.824C185.158 329.321 248.113 349.191 279.59 359.126L311.068 369.06" stroke="url(#paint17_linear_999_10508)" stroke-width="2"/>
<path opacity="0.222727" d="M74.9867 86.923L75.8857 99.0685C76.7847 111.214 78.5826 135.505 105.674 157.757C132.766 180.01 185.151 200.223 192.569 224.061C199.988 247.899 162.44 275.362 175.48 298.746C188.519 322.131 252.146 341.439 283.959 351.092L315.773 360.746" stroke="url(#paint18_linear_999_10508)" stroke-width="2"/>
<path opacity="0.232323" d="M70.3014 80.7474L71.6167 92.8831C72.9321 105.019 75.5627 129.29 103.413 151.298C131.264 173.307 184.334 193.052 192.569 216.82C200.804 240.589 164.204 268.38 178.043 291.646C191.883 314.912 256.162 333.651 288.301 343.02L320.441 352.39" stroke="url(#paint19_linear_999_10508)" stroke-width="2"/>
<path opacity="0.241919" d="M65.6544 74.6127L67.3857 86.7349C69.117 98.8571 72.5795 123.101 101.18 144.859C129.781 166.616 183.521 185.887 192.57 209.579C201.618 233.271 165.977 261.383 180.612 284.522C195.247 307.661 260.159 325.827 292.615 334.91L325.071 343.992" stroke="url(#paint20_linear_999_10508)" stroke-width="2"/>
<path opacity="0.251515" d="M61.0425 68.519L63.1893 80.6239C65.336 92.7289 69.6295 116.939 98.9722 138.439C128.315 159.939 182.707 178.73 192.567 202.337C202.427 225.945 167.755 254.37 183.181 277.375C198.608 300.381 264.132 317.967 296.895 326.76L329.657 335.553" stroke="url(#paint21_linear_999_10508)" stroke-width="2"/>
<path opacity="0.261111" d="M56.4755 62.4667L59.037 74.5507C61.5985 86.6347 66.7216 110.803 96.7971 132.039C126.873 153.275 181.901 171.58 192.569 195.096C203.237 218.613 169.545 247.341 185.758 270.207C201.971 293.072 268.089 310.073 301.148 318.574L334.207 327.075" stroke="url(#paint22_linear_999_10508)" stroke-width="2"/>
<path opacity="0.270707" d="M51.9472 56.4541L54.9228 68.5136C57.8983 80.573 63.8493 104.692 94.6485 125.658C125.448 146.624 181.095 164.437 192.568 187.855C204.041 211.273 171.339 240.297 188.334 263.014C205.328 285.732 272.019 302.143 305.365 310.349L338.71 318.555" stroke="url(#paint23_linear_999_10508)" stroke-width="2"/>
<path opacity="0.280303" d="M47.4624 50.4827L50.8511 62.5139C54.2397 74.5451 61.0169 98.6074 92.5304 119.297C124.044 139.986 180.294 157.302 192.568 180.614C204.842 203.927 173.141 233.237 190.912 255.8C208.683 278.363 275.926 294.18 309.548 302.088L343.17 309.997" stroke="url(#paint24_linear_999_10508)" stroke-width="2"/>
<path opacity="0.289899" d="M43.0229 44.5496L46.8236 56.5488C50.6242 68.5481 58.2256 92.5466 90.4438 112.953C122.662 133.359 179.497 150.173 192.569 173.373C205.64 196.573 174.949 226.159 193.491 248.561C212.033 270.963 279.809 286.18 313.697 293.789L347.585 301.397" stroke="url(#paint25_linear_999_10508)" stroke-width="2"/>
<path opacity="0.299495" d="M38.6283 38.6568L42.8399 50.6204C47.0514 62.5841 55.4746 86.5114 88.3877 106.628C121.301 126.745 178.704 143.051 192.569 166.132C206.434 189.213 176.762 219.067 196.07 241.301C215.377 263.535 283.665 278.148 317.808 285.454L351.952 292.76" stroke="url(#paint26_linear_999_10508)" stroke-width="2"/>
<path opacity="0.309091" d="M34.2804 32.8026L38.9016 44.7271C43.5228 56.6515 52.7652 80.5003 86.3631 100.322C119.961 120.143 177.914 135.937 192.569 158.891C207.224 181.845 178.58 211.959 198.647 234.018C218.714 256.076 287.492 270.081 321.881 277.083L356.27 284.085" stroke="url(#paint27_linear_999_10508)" stroke-width="2"/>
<path opacity="0.318687" d="M29.977 26.9863L35.0064 38.8679C40.0359 50.7494 50.0947 74.5126 84.3672 94.0326C118.64 113.553 177.126 128.829 192.566 151.65C208.005 174.47 180.398 204.833 201.219 226.711C222.039 248.588 291.287 261.979 325.911 268.675L360.535 275.37" stroke="url(#paint28_linear_999_10508)" stroke-width="2"/>
<path opacity="0.328283" d="M25.7277 21.2084L31.1638 33.0434C36.5999 44.8785 47.4721 68.5487 82.4088 87.7613C117.345 106.974 176.347 121.729 192.566 144.409C208.786 167.088 182.225 197.692 203.793 219.381C225.36 241.07 295.057 253.844 329.905 260.231L364.753 266.618" stroke="url(#paint29_linear_999_10508)" stroke-width="2"/>
<path opacity="0.337879" d="M21.5291 15.4677L27.3703 27.2527C33.2114 39.0377 44.8937 62.6077 80.4839 81.5071C116.074 100.406 175.572 114.635 192.567 137.167C209.563 159.699 184.055 190.535 206.363 212.029C228.671 233.523 298.795 245.676 333.857 251.753L368.919 257.829" stroke="url(#paint30_linear_999_10508)" stroke-width="2"/>
<path opacity="0.347475" d="M17.3792 9.76412L23.6235 21.4954C29.8679 33.2268 42.3567 56.6894 78.5896 75.2698C114.823 93.8502 174.8 107.548 192.565 129.926C210.33 152.304 185.884 183.361 208.925 204.654C231.967 225.947 302.497 237.475 337.762 243.239L373.027 249.003" stroke="url(#paint31_linear_999_10508)" stroke-width="2"/>
<path opacity="0.357071" d="M13.2863 4.09778L19.932 15.7718C26.5777 27.4459 39.8692 50.7941 76.7338 69.0498C113.598 87.3056 174.036 100.469 192.566 122.685C211.096 144.902 187.718 176.172 211.486 197.256C235.255 218.341 306.169 229.241 341.627 234.691L377.084 240.141" stroke="url(#paint32_linear_999_10508)" stroke-width="2"/>
<path opacity="0.366667" d="M9.24719 -1.53344L16.2923 10.0798C23.3373 21.6931 37.4275 44.9196 74.9124 62.8452C112.397 80.7707 173.277 93.3953 192.566 115.444C211.855 137.492 189.553 168.965 214.041 189.835C238.529 210.706 309.807 220.974 345.445 226.109L381.084 231.243" stroke="url(#paint33_linear_999_10508)" stroke-width="2"/>
<path opacity="0.376263" d="M5.26161 -7.12844L12.7039 4.42048C20.1461 15.9694 35.0306 39.0673 73.1246 56.6571C111.219 74.247 172.522 86.3289 192.564 108.203C212.606 130.077 191.387 161.742 216.587 182.392C241.787 203.042 313.406 212.676 349.215 217.493L385.024 222.31" stroke="url(#paint34_linear_999_10508)" stroke-width="2"/>
<path opacity="0.385859" d="M1.33312 -12.6881L9.17027 -1.20704C17.0074 10.274 32.6817 33.2361 71.3731 50.485C110.065 67.7338 171.773 79.2694 192.562 100.962C213.351 122.654 193.221 154.504 219.125 174.927C245.03 195.35 316.968 204.346 352.937 208.844L388.906 213.342" stroke="url(#paint35_linear_999_10508)" stroke-width="2"/>
<path opacity="0.395455" d="M-2.53475 -18.2135L5.69492 -6.80383C13.9246 4.60588 30.384 27.4253 69.661 44.3279C108.938 61.2304 171.033 72.2161 192.563 93.7207C214.092 115.225 195.058 147.249 221.658 167.438C248.259 187.628 320.495 195.984 356.612 200.162L392.73 204.34" stroke="url(#paint36_linear_999_10508)" stroke-width="2"/>
<path opacity="0.405051" d="M-6.34142 -23.7048L2.27828 -12.37C10.898 -1.0351 28.1374 21.6346 67.988 38.1858C107.839 54.7369 170.301 65.1694 192.565 86.4795C214.829 107.79 196.895 139.977 224.184 159.927C251.473 179.878 323.984 187.591 360.24 191.448L396.496 195.304" stroke="url(#paint37_linear_999_10508)" stroke-width="2"/>
<path opacity="0.414646" d="M-10.0911 -29.1629L-1.08402 -17.9063C7.92307 -6.64975 25.9372 15.8634 66.3494 32.0581C106.762 48.2527 169.572 58.1289 192.563 79.238C215.555 100.347 198.728 132.689 226.696 152.394C254.665 172.099 327.43 179.167 363.812 182.701L400.195 186.235" stroke="url(#paint38_linear_999_10508)" stroke-width="2"/>
<path opacity="0.424242" d="M-13.7803 -34.5866L-4.38858 -23.4118C5.00315 -12.2369 23.7866 10.1128 64.748 25.9461C105.709 41.7794 168.849 51.0961 192.561 71.9978C216.272 92.8994 200.557 125.386 229.197 144.839C257.838 164.293 330.834 170.714 367.332 173.924L403.83 177.134" stroke="url(#paint39_linear_999_10508)" stroke-width="2"/>
<path opacity="0.433838" d="M-17.4026 -39.9788L-7.62912 -28.8891C2.1444 -17.7993 21.6914 4.3802 63.1895 19.8472C104.688 35.3143 168.137 44.0688 192.562 64.7567C216.987 85.4445 202.388 118.066 231.691 137.262C260.994 156.458 334.199 162.229 370.802 165.115L407.404 168" stroke="url(#paint40_linear_999_10508)" stroke-width="2"/>
<path opacity="0.443434" d="M-20.9663 -45.3393L-10.814 -34.338C-0.661641 -23.3368 19.643 -1.33428 61.6652 13.7618C103.687 28.8579 167.427 37.0476 192.558 57.5153C217.689 77.9831 204.21 110.729 234.167 129.662C264.124 148.595 337.516 153.715 374.212 156.275L410.908 158.835" stroke="url(#paint41_linear_999_10508)" stroke-width="2"/>
<path opacity="0.45303" d="M-24.46 -50.668L-13.9319 -39.7586C-3.40388 -28.8492 17.6522 -7.03036 60.1857 7.69019C102.719 22.4107 166.73 30.033 192.559 50.2744C218.388 70.5159 206.034 103.376 236.636 122.04C267.238 140.704 340.794 145.172 377.572 147.406L414.35 149.639" stroke="url(#paint42_linear_999_10508)" stroke-width="2"/>
<path opacity="0.462626" d="M-27.8881 -55.9667L-16.9875 -45.1524C-6.08694 -34.3382 15.7142 -12.7097 58.746 1.6308C101.778 15.9713 166.04 23.0239 192.559 43.0328C219.078 63.0418 207.854 96.007 239.091 114.396C270.328 132.786 344.026 136.599 380.875 138.506L417.725 140.413" stroke="url(#paint43_linear_999_10508)" stroke-width="2"/>
<path opacity="0.472222" d="M-31.2509 -61.2345L-19.9812 -50.5187C-8.71145 -39.8029 13.828 -18.3714 57.3451 -4.41526C100.862 9.54088 165.357 16.0216 192.558 35.792C219.759 55.5623 209.667 88.6222 241.53 106.731C273.392 124.841 347.21 127.999 384.119 129.578L421.028 131.157" stroke="url(#paint44_linear_999_10508)" stroke-width="2"/>
<path opacity="0.481818" d="M-34.5433 -66.4732L-22.9078 -55.8592C-11.2723 -45.2452 11.9987 -24.0171 55.9877 -10.4496C99.9767 3.11791 164.684 9.02481 192.559 28.5505C220.434 48.0763 211.477 81.2208 243.956 99.0442C276.435 116.868 350.35 119.37 387.307 120.621L424.265 121.872" stroke="url(#paint45_linear_999_10508)" stroke-width="2"/>
<path opacity="0.491414" d="M-37.7704 -71.6825L-25.7727 -61.1735C-13.7749 -50.6644 10.2205 -29.6462 54.668 -16.4715C99.1156 -3.29679 164.015 2.03449 192.556 21.3097C221.096 40.5848 213.277 73.8039 246.362 91.3361C279.447 108.868 353.437 110.714 390.432 111.636L427.426 112.559" stroke="url(#paint46_linear_999_10508)" stroke-width="2"/>
<path opacity="0.50101" d="M-40.9259 -76.863L-28.5697 -66.462C-16.2134 -56.0611 8.49914 -35.2593 53.3917 -22.4814C98.2843 -9.70343 163.357 -4.9494 192.554 14.0693C221.751 33.0881 215.072 66.3715 248.754 83.6072C282.435 100.843 356.477 102.031 393.497 102.625L430.518 103.219" stroke="url(#paint47_linear_999_10508)" stroke-width="2"/>
<path opacity="0.510606" d="M-44.0085 -82.0165L-31.2974 -71.727C-18.5864 -61.4374 6.83576 -40.8582 52.1597 -28.481C97.4836 -16.1037 162.709 -11.9284 192.554 6.82814C222.399 25.5847 216.863 58.9224 251.13 75.8562C285.397 92.7901 359.468 93.3201 396.504 93.5852L433.539 93.8502" stroke="url(#paint48_linear_999_10508)" stroke-width="2"/>
<path opacity="0.520202" d="M-47.0195 -87.1434L-33.9575 -76.9683C-20.8955 -66.7931 5.22845 -46.4429 50.9699 -34.4701C96.7114 -22.4973 162.07 -18.9019 192.554 -0.413352C223.037 18.0752 218.645 51.457 253.488 68.084C288.331 84.7109 362.409 84.5829 399.448 84.519L436.487 84.455" stroke="url(#paint49_linear_999_10508)" stroke-width="2"/>
<path opacity="0.529798" d="M-49.9585 -92.243L-36.5496 -82.1855C-23.1407 -72.1279 3.67717 -52.0128 49.8223 -40.4481C95.9674 -28.8834 161.44 -25.8691 192.552 -7.65409C223.665 10.5609 220.419 43.9766 255.826 60.2916C291.234 76.6065 365.296 75.8206 402.327 75.4277L439.358 75.0348" stroke="url(#paint50_linear_999_10508)" stroke-width="2"/>
<path opacity="0.539394" d="M-52.8222 -97.3173L-39.0704 -87.3804C-25.3186 -77.4435 2.18496 -57.5696 48.7196 -46.4165C95.2542 -35.2634 160.82 -32.8311 192.553 -14.8952C224.285 3.04067 222.185 36.4801 258.147 52.4781C294.109 68.476 368.133 67.0325 405.145 66.3107L442.157 65.5889" stroke="url(#paint51_linear_999_10508)" stroke-width="2"/>
<path opacity="0.54899" d="M-55.611 -102.366L-41.5206 -92.5525C-27.4301 -82.7392 0.750773 -63.1127 47.6608 -52.3746C94.5708 -41.6366 160.21 -39.787 192.553 -22.1356C224.896 -4.48433 223.943 28.9687 260.448 44.6448C296.953 60.3209 370.916 58.2201 407.897 57.1697L444.879 56.1193" stroke="url(#paint52_linear_999_10508)" stroke-width="2"/>
<path opacity="0.558586" d="M-58.3276 -107.391L-43.9027 -97.7045C-29.4779 -88.0179 -0.628223 -68.6447 46.6429 -58.3249C93.914 -48.0051 159.607 -46.7388 192.55 -29.3774C225.493 -12.0161 225.687 21.4403 262.724 36.7898C299.761 52.1393 373.641 49.3818 410.581 48.0031L447.521 46.6244" stroke="url(#paint53_linear_999_10508)" stroke-width="2"/>
<path opacity="0.568182" d="M-60.9636 -112.392L-46.2087 -102.835C-31.4539 -93.2778 -1.94429 -74.1637 45.6735 -64.2654C93.2914 -54.367 159.017 -53.6844 192.551 -36.6183C226.085 -19.5522 227.426 13.8974 264.984 28.9156C302.542 43.9338 376.316 40.5206 413.203 38.814L450.09 37.1074" stroke="url(#paint54_linear_999_10508)" stroke-width="2"/>
<path opacity="0.577778" d="M-63.5245 -117.369L-48.4441 -107.945C-33.3638 -98.52 -3.20324 -79.671 44.7468 -70.1971C92.6968 -60.7232 158.436 -60.6244 192.55 -43.8588C226.664 -27.0931 229.152 6.33946 267.219 21.0218C305.286 35.7041 378.932 31.6361 415.755 29.6021L452.578 27.5682" stroke="url(#paint55_linear_999_10508)" stroke-width="2"/>
<path opacity="0.587374" d="M-66.0089 -122.325L-50.6077 -113.035C-35.2065 -103.746 -4.40407 -85.1681 43.8635 -76.1215C92.1311 -67.075 157.864 -67.5601 192.547 -51.1C227.231 -34.6399 230.865 -1.23448 269.43 13.1075C307.995 27.4494 381.49 22.728 418.237 20.3672L454.985 18.0065" stroke="url(#paint56_linear_999_10508)" stroke-width="2"/>
<path opacity="0.59697" d="M-68.4126 -127.259L-52.6952 -118.108C-36.9778 -108.957 -5.54296 -90.6551 43.0275 -82.0386C91.598 -73.4221 157.304 -74.491 192.547 -58.3415C227.79 -42.1919 232.569 -8.8239 271.62 5.17334C310.67 19.1706 383.992 13.7971 420.653 11.1103L457.314 8.42355" stroke="url(#paint57_linear_999_10508)" stroke-width="2"/>
<path opacity="0.606566" d="M-70.7371 -132.171L-54.7083 -123.161C-38.6795 -114.151 -6.62181 -96.1311 42.2367 -87.9473C91.0953 -79.7636 156.755 -81.4159 192.546 -65.5819C228.337 -49.7478 234.26 -16.4273 273.785 -2.77903C313.309 10.8692 386.436 4.8453 422.999 1.83332L459.563 -1.17865" stroke="url(#paint58_linear_999_10508)" stroke-width="2"/>
<path opacity="0.616162" d="M-72.9821 -137.063L-56.6467 -128.197C-40.3114 -119.331 -7.64066 -101.599 41.4911 -93.85C90.6228 -86.1014 156.216 -88.3367 192.544 -72.8229C228.873 -57.3091 235.938 -24.0463 275.924 -10.7512C315.911 2.54392 388.82 -4.12861 425.274 -7.46487L461.729 -10.8011" stroke="url(#paint59_linear_999_10508)" stroke-width="2"/>
<path opacity="0.625758" d="M-75.1442 -141.936L-58.5073 -133.216C-41.8704 -124.497 -8.5966 -107.057 40.7934 -99.7461C90.1834 -92.4352 155.69 -95.2527 192.545 -80.064C229.4 -64.8752 237.604 -31.6802 278.041 -18.7423C318.477 -5.80435 391.146 -13.1234 427.481 -16.783L463.815 -20.4425" stroke="url(#paint60_linear_999_10508)" stroke-width="2"/>
<path opacity="0.635354" d="M-77.2252 -146.79L-60.2918 -138.219C-43.3584 -129.648 -9.49159 -112.507 40.1416 -105.636C89.7748 -98.7646 155.174 -102.164 192.545 -87.3045C229.915 -72.4454 239.257 -39.3284 280.131 -26.7515C321.005 -14.1747 393.412 -22.1381 429.615 -26.1198L465.818 -30.1015" stroke="url(#paint61_linear_999_10508)" stroke-width="2"/>
<path opacity="0.644949" d="M-79.2256 -151.626L-62.0008 -143.207C-44.7761 -134.788 -10.3266 -117.95 39.5346 -111.52C89.3959 -105.091 154.669 -109.07 192.543 -94.5456C230.418 -80.0207 240.893 -46.9916 282.192 -34.7798C323.491 -22.5679 395.614 -31.1732 431.675 -35.4759L467.737 -39.7785" stroke="url(#paint62_linear_999_10508)" stroke-width="2"/>
<path opacity="0.654545" d="M-81.1421 -156.444L-63.6313 -148.179C-46.1205 -139.915 -11.0988 -123.385 38.9753 -117.4C89.0494 -111.415 154.176 -115.973 192.543 -101.787C230.909 -87.6004 242.516 -54.6694 284.228 -42.8262C325.939 -30.983 397.756 -40.2276 433.664 -44.8499L469.573 -49.4722" stroke="url(#paint63_linear_999_10508)" stroke-width="2"/>
<path opacity="0.664141" d="M-82.9755 -161.246L-65.1839 -153.138C-47.3924 -145.031 -11.8092 -128.815 38.4626 -123.275C88.7343 -117.735 153.695 -122.871 192.542 -109.028C231.389 -95.1847 244.123 -62.3618 286.235 -50.8909C328.346 -39.42 399.835 -49.3011 435.579 -54.2416L471.324 -59.1821" stroke="url(#paint64_linear_999_10508)" stroke-width="2"/>
<path opacity="0.673737" d="M-84.7254 -166.032L-66.6585 -158.083C-48.5916 -150.135 -12.4578 -134.237 37.9963 -129.145C88.4504 -124.052 153.225 -129.765 192.541 -116.269C231.857 -102.772 245.715 -70.0677 288.213 -58.9726C330.711 -47.8775 401.85 -58.392 437.42 -63.6493L472.989 -68.9065" stroke="url(#paint65_linear_999_10508)" stroke-width="2"/>
<defs>
<linearGradient id="paint0_linear_999_10508" x1="271.261" y1="360.745" x2="124.046" y2="314.93" gradientUnits="userSpaceOnUse">
<stop stop-color="#F9B233"/>
<stop offset="1" stop-color="#E9511B"/>
</linearGradient>
<linearGradient id="paint1_linear_999_10508" x1="271.468" y1="352.804" x2="121.827" y2="311.48" gradientUnits="userSpaceOnUse">
<stop stop-color="#F9B233"/>
<stop offset="1" stop-color="#E9511B"/>
</linearGradient>
<linearGradient id="paint2_linear_999_10508" x1="271.646" y1="344.861" x2="119.802" y2="308.226" gradientUnits="userSpaceOnUse">
<stop stop-color="#F9B233"/>
<stop offset="1" stop-color="#E9511B"/>
</linearGradient>
<linearGradient id="paint3_linear_999_10508" x1="271.807" y1="336.917" x2="118.003" y2="305.153" gradientUnits="userSpaceOnUse">
<stop stop-color="#F9B233"/>
<stop offset="1" stop-color="#E9511B"/>
</linearGradient>
<linearGradient id="paint4_linear_999_10508" x1="271.94" y1="328.972" x2="116.441" y2="302.24" gradientUnits="userSpaceOnUse">
<stop stop-color="#F9B233"/>
<stop offset="1" stop-color="#E9511B"/>
</linearGradient>
<linearGradient id="paint5_linear_999_10508" x1="272.049" y1="321.025" x2="115.137" y2="299.465" gradientUnits="userSpaceOnUse">
<stop stop-color="#F9B233"/>
<stop offset="1" stop-color="#E9511B"/>
</linearGradient>
<linearGradient id="paint6_linear_999_10508" x1="272.135" y1="313.077" x2="114.106" y2="296.803" gradientUnits="userSpaceOnUse">
<stop stop-color="#F9B233"/>
<stop offset="1" stop-color="#E9511B"/>
</linearGradient>
<linearGradient id="paint7_linear_999_10508" x1="272.193" y1="305.129" x2="113.358" y2="294.23" gradientUnits="userSpaceOnUse">
<stop stop-color="#F9B233"/>
<stop offset="1" stop-color="#E9511B"/>
</linearGradient>
<linearGradient id="paint8_linear_999_10508" x1="272.23" y1="297.18" x2="112.908" y2="291.716" gradientUnits="userSpaceOnUse">
<stop stop-color="#F9B233"/>
<stop offset="1" stop-color="#E9511B"/>
</linearGradient>
<linearGradient id="paint9_linear_999_10508" x1="272.243" y1="289.231" x2="112.758" y2="289.231" gradientUnits="userSpaceOnUse">
<stop stop-color="#F9B233"/>
<stop offset="1" stop-color="#E9511B"/>
</linearGradient>
<linearGradient id="paint10_linear_999_10508" x1="272.231" y1="281.283" x2="112.909" y2="286.747" gradientUnits="userSpaceOnUse">
<stop stop-color="#F9B233"/>
<stop offset="1" stop-color="#E9511B"/>
</linearGradient>
<linearGradient id="paint11_linear_999_10508" x1="272.194" y1="273.334" x2="113.36" y2="284.233" gradientUnits="userSpaceOnUse">
<stop stop-color="#F9B233"/>
<stop offset="1" stop-color="#E9511B"/>
</linearGradient>
<linearGradient id="paint12_linear_999_10508" x1="272.134" y1="265.386" x2="114.106" y2="281.659" gradientUnits="userSpaceOnUse">
<stop stop-color="#F9B233"/>
<stop offset="1" stop-color="#E9511B"/>
</linearGradient>
<linearGradient id="paint13_linear_999_10508" x1="272.048" y1="257.438" x2="115.136" y2="278.998" gradientUnits="userSpaceOnUse">
<stop stop-color="#F9B233"/>
<stop offset="1" stop-color="#E9511B"/>
</linearGradient>
<linearGradient id="paint14_linear_999_10508" x1="271.941" y1="249.492" x2="116.442" y2="276.224" gradientUnits="userSpaceOnUse">
<stop stop-color="#F9B233"/>
<stop offset="1" stop-color="#E9511B"/>
</linearGradient>
<linearGradient id="paint15_linear_999_10508" x1="271.806" y1="241.547" x2="118.003" y2="273.311" gradientUnits="userSpaceOnUse">
<stop stop-color="#F9B233"/>
<stop offset="1" stop-color="#E9511B"/>
</linearGradient>
<linearGradient id="paint16_linear_999_10508" x1="271.646" y1="233.602" x2="119.801" y2="270.236" gradientUnits="userSpaceOnUse">
<stop stop-color="#F9B233"/>
<stop offset="1" stop-color="#E9511B"/>
</linearGradient>
<linearGradient id="paint17_linear_999_10508" x1="271.467" y1="225.659" x2="121.826" y2="266.983" gradientUnits="userSpaceOnUse">
<stop stop-color="#F9B233"/>
<stop offset="1" stop-color="#E9511B"/>
</linearGradient>
<linearGradient id="paint18_linear_999_10508" x1="271.26" y1="217.718" x2="124.046" y2="263.533" gradientUnits="userSpaceOnUse">
<stop stop-color="#F9B233"/>
<stop offset="1" stop-color="#E9511B"/>
</linearGradient>
<linearGradient id="paint19_linear_999_10508" x1="271.03" y1="209.779" x2="126.442" y2="259.875" gradientUnits="userSpaceOnUse">
<stop stop-color="#F9B233"/>
<stop offset="1" stop-color="#E9511B"/>
</linearGradient>
<linearGradient id="paint20_linear_999_10508" x1="270.778" y1="201.842" x2="128.991" y2="255.996" gradientUnits="userSpaceOnUse">
<stop stop-color="#F9B233"/>
<stop offset="1" stop-color="#E9511B"/>
</linearGradient>
<linearGradient id="paint21_linear_999_10508" x1="270.498" y1="193.907" x2="131.667" y2="251.891" gradientUnits="userSpaceOnUse">
<stop stop-color="#F9B233"/>
<stop offset="1" stop-color="#E9511B"/>
</linearGradient>
<linearGradient id="paint22_linear_999_10508" x1="270.199" y1="185.975" x2="134.453" y2="247.555" gradientUnits="userSpaceOnUse">
<stop stop-color="#F9B233"/>
<stop offset="1" stop-color="#E9511B"/>
</linearGradient>
<linearGradient id="paint23_linear_999_10508" x1="269.873" y1="178.046" x2="137.32" y2="242.985" gradientUnits="userSpaceOnUse">
<stop stop-color="#F9B233"/>
<stop offset="1" stop-color="#E9511B"/>
</linearGradient>
<linearGradient id="paint24_linear_999_10508" x1="269.525" y1="170.12" x2="140.249" y2="238.184" gradientUnits="userSpaceOnUse">
<stop stop-color="#F9B233"/>
<stop offset="1" stop-color="#E9511B"/>
</linearGradient>
<linearGradient id="paint25_linear_999_10508" x1="269.154" y1="162.196" x2="143.221" y2="233.152" gradientUnits="userSpaceOnUse">
<stop stop-color="#F9B233"/>
<stop offset="1" stop-color="#E9511B"/>
</linearGradient>
<linearGradient id="paint26_linear_999_10508" x1="268.76" y1="154.277" x2="146.213" y2="227.896" gradientUnits="userSpaceOnUse">
<stop stop-color="#F9B233"/>
<stop offset="1" stop-color="#E9511B"/>
</linearGradient>
<linearGradient id="paint27_linear_999_10508" x1="268.342" y1="146.361" x2="149.209" y2="222.421" gradientUnits="userSpaceOnUse">
<stop stop-color="#F9B233"/>
<stop offset="1" stop-color="#E9511B"/>
</linearGradient>
<linearGradient id="paint28_linear_999_10508" x1="267.897" y1="138.449" x2="152.189" y2="216.735" gradientUnits="userSpaceOnUse">
<stop stop-color="#F9B233"/>
<stop offset="1" stop-color="#E9511B"/>
</linearGradient>
<linearGradient id="paint29_linear_999_10508" x1="267.434" y1="130.541" x2="155.146" y2="210.846" gradientUnits="userSpaceOnUse">
<stop stop-color="#F9B233"/>
<stop offset="1" stop-color="#E9511B"/>
</linearGradient>
<linearGradient id="paint30_linear_999_10508" x1="266.948" y1="122.637" x2="158.062" y2="204.765" gradientUnits="userSpaceOnUse">
<stop stop-color="#F9B233"/>
<stop offset="1" stop-color="#E9511B"/>
</linearGradient>
<linearGradient id="paint31_linear_999_10508" x1="266.435" y1="114.737" x2="160.924" y2="198.501" gradientUnits="userSpaceOnUse">
<stop stop-color="#F9B233"/>
<stop offset="1" stop-color="#E9511B"/>
</linearGradient>
<linearGradient id="paint32_linear_999_10508" x1="265.904" y1="106.842" x2="163.727" y2="192.065" gradientUnits="userSpaceOnUse">
<stop stop-color="#F9B233"/>
<stop offset="1" stop-color="#E9511B"/>
</linearGradient>
<linearGradient id="paint33_linear_999_10508" x1="265.35" y1="98.9519" x2="166.458" y2="185.466" gradientUnits="userSpaceOnUse">
<stop stop-color="#F9B233"/>
<stop offset="1" stop-color="#E9511B"/>
</linearGradient>
<linearGradient id="paint34_linear_999_10508" x1="264.771" y1="91.0669" x2="169.11" y2="178.718" gradientUnits="userSpaceOnUse">
<stop stop-color="#F9B233"/>
<stop offset="1" stop-color="#E9511B"/>
</linearGradient>
<linearGradient id="paint35_linear_999_10508" x1="264.171" y1="83.1873" x2="171.678" y2="171.829" gradientUnits="userSpaceOnUse">
<stop stop-color="#F9B233"/>
<stop offset="1" stop-color="#E9511B"/>
</linearGradient>
<linearGradient id="paint36_linear_999_10508" x1="263.551" y1="75.3127" x2="174.159" y2="164.81" gradientUnits="userSpaceOnUse">
<stop stop-color="#F9B233"/>
<stop offset="1" stop-color="#E9511B"/>
</linearGradient>
<linearGradient id="paint37_linear_999_10508" x1="262.911" y1="67.4438" x2="176.55" y2="157.671" gradientUnits="userSpaceOnUse">
<stop stop-color="#F9B233"/>
<stop offset="1" stop-color="#E9511B"/>
</linearGradient>
<linearGradient id="paint38_linear_999_10508" x1="262.246" y1="59.5804" x2="178.841" y2="150.423" gradientUnits="userSpaceOnUse">
<stop stop-color="#F9B233"/>
<stop offset="1" stop-color="#E9511B"/>
</linearGradient>
<linearGradient id="paint39_linear_999_10508" x1="261.558" y1="51.7243" x2="181.034" y2="143.075" gradientUnits="userSpaceOnUse">
<stop stop-color="#F9B233"/>
<stop offset="1" stop-color="#E9511B"/>
</linearGradient>
<linearGradient id="paint40_linear_999_10508" x1="260.854" y1="43.8734" x2="183.132" y2="135.636" gradientUnits="userSpaceOnUse">
<stop stop-color="#F9B233"/>
<stop offset="1" stop-color="#E9511B"/>
</linearGradient>
<linearGradient id="paint41_linear_999_10508" x1="260.123" y1="36.0287" x2="185.125" y2="128.113" gradientUnits="userSpaceOnUse">
<stop stop-color="#F9B233"/>
<stop offset="1" stop-color="#E9511B"/>
</linearGradient>
<linearGradient id="paint42_linear_999_10508" x1="259.377" y1="28.191" x2="187.024" y2="120.517" gradientUnits="userSpaceOnUse">
<stop stop-color="#F9B233"/>
<stop offset="1" stop-color="#E9511B"/>
</linearGradient>
<linearGradient id="paint43_linear_999_10508" x1="258.61" y1="20.3592" x2="188.823" y2="112.852" gradientUnits="userSpaceOnUse">
<stop stop-color="#F9B233"/>
<stop offset="1" stop-color="#E9511B"/>
</linearGradient>
<linearGradient id="paint44_linear_999_10508" x1="257.821" y1="12.5351" x2="190.522" y2="105.129" gradientUnits="userSpaceOnUse">
<stop stop-color="#F9B233"/>
<stop offset="1" stop-color="#E9511B"/>
</linearGradient>
<linearGradient id="paint45_linear_999_10508" x1="257.015" y1="4.71761" x2="192.126" y2="97.3526" gradientUnits="userSpaceOnUse">
<stop stop-color="#F9B233"/>
<stop offset="1" stop-color="#E9511B"/>
</linearGradient>
<linearGradient id="paint46_linear_999_10508" x1="256.184" y1="-3.09215" x2="193.631" y2="89.5298" gradientUnits="userSpaceOnUse">
<stop stop-color="#F9B233"/>
<stop offset="1" stop-color="#E9511B"/>
</linearGradient>
<linearGradient id="paint47_linear_999_10508" x1="255.336" y1="-10.8939" x2="195.043" y2="81.6667" gradientUnits="userSpaceOnUse">
<stop stop-color="#F9B233"/>
<stop offset="1" stop-color="#E9511B"/>
</linearGradient>
<linearGradient id="paint48_linear_999_10508" x1="254.471" y1="-18.6889" x2="196.365" y2="73.7672" gradientUnits="userSpaceOnUse">
<stop stop-color="#F9B233"/>
<stop offset="1" stop-color="#E9511B"/>
</linearGradient>
<linearGradient id="paint49_linear_999_10508" x1="253.586" y1="-26.4765" x2="197.597" y2="65.8371" gradientUnits="userSpaceOnUse">
<stop stop-color="#F9B233"/>
<stop offset="1" stop-color="#E9511B"/>
</linearGradient>
<linearGradient id="paint50_linear_999_10508" x1="252.682" y1="-34.2553" x2="198.74" y2="57.8818" gradientUnits="userSpaceOnUse">
<stop stop-color="#F9B233"/>
<stop offset="1" stop-color="#E9511B"/>
</linearGradient>
<linearGradient id="paint51_linear_999_10508" x1="251.76" y1="-42.0265" x2="199.799" y2="49.9047" gradientUnits="userSpaceOnUse">
<stop stop-color="#F9B233"/>
<stop offset="1" stop-color="#E9511B"/>
</linearGradient>
<linearGradient id="paint52_linear_999_10508" x1="250.821" y1="-49.7886" x2="200.776" y2="41.9108" gradientUnits="userSpaceOnUse">
<stop stop-color="#F9B233"/>
<stop offset="1" stop-color="#E9511B"/>
</linearGradient>
<linearGradient id="paint53_linear_999_10508" x1="249.861" y1="-57.5438" x2="201.669" y2="33.9015" gradientUnits="userSpaceOnUse">
<stop stop-color="#F9B233"/>
<stop offset="1" stop-color="#E9511B"/>
</linearGradient>
<linearGradient id="paint54_linear_999_10508" x1="248.888" y1="-65.2893" x2="202.488" y2="25.8827" gradientUnits="userSpaceOnUse">
<stop stop-color="#F9B233"/>
<stop offset="1" stop-color="#E9511B"/>
</linearGradient>
<linearGradient id="paint55_linear_999_10508" x1="247.895" y1="-73.0259" x2="203.229" y2="17.8567" gradientUnits="userSpaceOnUse">
<stop stop-color="#F9B233"/>
<stop offset="1" stop-color="#E9511B"/>
</linearGradient>
<linearGradient id="paint56_linear_999_10508" x1="246.884" y1="-80.7542" x2="203.896" y2="9.82535" gradientUnits="userSpaceOnUse">
<stop stop-color="#F9B233"/>
<stop offset="1" stop-color="#E9511B"/>
</linearGradient>
<linearGradient id="paint57_linear_999_10508" x1="245.858" y1="-88.4738" x2="204.495" y2="1.79166" gradientUnits="userSpaceOnUse">
<stop stop-color="#F9B233"/>
<stop offset="1" stop-color="#E9511B"/>
</linearGradient>
<linearGradient id="paint58_linear_999_10508" x1="244.815" y1="-96.1831" x2="205.025" y2="-6.2406" gradientUnits="userSpaceOnUse">
<stop stop-color="#F9B233"/>
<stop offset="1" stop-color="#E9511B"/>
</linearGradient>
<linearGradient id="paint59_linear_999_10508" x1="243.756" y1="-103.884" x2="205.488" y2="-14.2711" gradientUnits="userSpaceOnUse">
<stop stop-color="#F9B233"/>
<stop offset="1" stop-color="#E9511B"/>
</linearGradient>
<linearGradient id="paint60_linear_999_10508" x1="242.684" y1="-111.575" x2="205.891" y2="-22.297" gradientUnits="userSpaceOnUse">
<stop stop-color="#F9B233"/>
<stop offset="1" stop-color="#E9511B"/>
</linearGradient>
<linearGradient id="paint61_linear_999_10508" x1="241.596" y1="-119.256" x2="206.232" y2="-30.3161" gradientUnits="userSpaceOnUse">
<stop stop-color="#F9B233"/>
<stop offset="1" stop-color="#E9511B"/>
</linearGradient>
<linearGradient id="paint62_linear_999_10508" x1="240.491" y1="-126.928" x2="206.513" y2="-38.3278" gradientUnits="userSpaceOnUse">
<stop stop-color="#F9B233"/>
<stop offset="1" stop-color="#E9511B"/>
</linearGradient>
<linearGradient id="paint63_linear_999_10508" x1="239.373" y1="-134.59" x2="206.738" y2="-46.3301" gradientUnits="userSpaceOnUse">
<stop stop-color="#F9B233"/>
<stop offset="1" stop-color="#E9511B"/>
</linearGradient>
<linearGradient id="paint64_linear_999_10508" x1="238.24" y1="-142.242" x2="206.909" y2="-54.3217" gradientUnits="userSpaceOnUse">
<stop stop-color="#F9B233"/>
<stop offset="1" stop-color="#E9511B"/>
</linearGradient>
<linearGradient id="paint65_linear_999_10508" x1="237.093" y1="-149.884" x2="207.028" y2="-62.3004" gradientUnits="userSpaceOnUse">
<stop stop-color="#F9B233"/>
<stop offset="1" stop-color="#E9511B"/>
</linearGradient>
</defs>
</svg>
