<?xml version="1.0" encoding="utf-8"?>
<!-- Generator: Adobe Illustrator 26.0.3, SVG Export Plug-In . SVG Version: 6.00 Build 0)  -->
<svg version="1.1" id="Layer_1" xmlns="http://www.w3.org/2000/svg" xmlns:xlink="http://www.w3.org/1999/xlink" x="0px" y="0px"
	 viewBox="0 0 360 300" style="enable-background:new 0 0 360 300;" xml:space="preserve">
<style type="text/css">
	.st0{opacity:1.000000e-02;fill:none;stroke:url(#SVGID_1_);stroke-width:0.3;enable-background:new    ;}
	
		.st1{opacity:2.000000e-02;fill:none;stroke:url(#SVGID_00000052064350246897594770000000274845667180514202_);stroke-width:0.3;enable-background:new    ;}
	
		.st2{opacity:3.000000e-02;fill:none;stroke:url(#SVGID_00000167371740848136406370000017777290718618770850_);stroke-width:0.3;enable-background:new    ;}
	
		.st3{opacity:4.000000e-02;fill:none;stroke:url(#SVGID_00000013889236390694796600000011015713024571292809_);stroke-width:0.3;enable-background:new    ;}
	
		.st4{opacity:5.000000e-02;fill:none;stroke:url(#SVGID_00000006668142393014260370000015182099872970185400_);stroke-width:0.3;enable-background:new    ;}
	
		.st5{opacity:6.000000e-02;fill:none;stroke:url(#SVGID_00000125565411660768046140000017280264392363256965_);stroke-width:0.3;enable-background:new    ;}
	
		.st6{opacity:7.000000e-02;fill:none;stroke:url(#SVGID_00000014612335306965404640000005283740598703580094_);stroke-width:0.3;enable-background:new    ;}
	
		.st7{opacity:8.000000e-02;fill:none;stroke:url(#SVGID_00000066500915333756525520000013531812648801741470_);stroke-width:0.3;enable-background:new    ;}
	
		.st8{opacity:9.000000e-02;fill:none;stroke:url(#SVGID_00000003808905680758005720000011275503931764814474_);stroke-width:0.3;enable-background:new    ;}
	
		.st9{opacity:0.1;fill:none;stroke:url(#SVGID_00000179622033142579602410000013643054339749620666_);stroke-width:0.3;enable-background:new    ;}
	
		.st10{opacity:0.11;fill:none;stroke:url(#SVGID_00000160892136932307085630000011289036891088380341_);stroke-width:0.3;enable-background:new    ;}
	
		.st11{opacity:0.12;fill:none;stroke:url(#SVGID_00000077290734054607615990000002953056315454045111_);stroke-width:0.3;enable-background:new    ;}
	
		.st12{opacity:0.13;fill:none;stroke:url(#SVGID_00000150819818060937804150000007418312332830232208_);stroke-width:0.3;enable-background:new    ;}
	
		.st13{opacity:0.14;fill:none;stroke:url(#SVGID_00000091709694619205445900000003100829827512335516_);stroke-width:0.3;enable-background:new    ;}
	
		.st14{opacity:0.15;fill:none;stroke:url(#SVGID_00000157992382541981240860000008541918234296445631_);stroke-width:0.3;enable-background:new    ;}
	
		.st15{opacity:0.16;fill:none;stroke:url(#SVGID_00000095311949019286810350000002789858197188566436_);stroke-width:0.3;enable-background:new    ;}
	
		.st16{opacity:0.17;fill:none;stroke:url(#SVGID_00000143581360483918301080000004723850287706308746_);stroke-width:0.3;enable-background:new    ;}
	
		.st17{opacity:0.18;fill:none;stroke:url(#SVGID_00000079467773605847388900000005850662539078073234_);stroke-width:0.3;enable-background:new    ;}
	
		.st18{opacity:0.19;fill:none;stroke:url(#SVGID_00000164509347330960110600000006833307540438820543_);stroke-width:0.3;enable-background:new    ;}
	
		.st19{opacity:0.2;fill:none;stroke:url(#SVGID_00000048465009550574504380000016434831966497607581_);stroke-width:0.3;enable-background:new    ;}
	
		.st20{opacity:0.21;fill:none;stroke:url(#SVGID_00000133491112078744643270000016247539209766223534_);stroke-width:0.3;enable-background:new    ;}
	
		.st21{opacity:0.22;fill:none;stroke:url(#SVGID_00000014612955244034993720000012199791612801568945_);stroke-width:0.3;enable-background:new    ;}
	
		.st22{opacity:0.23;fill:none;stroke:url(#SVGID_00000121986742275008899160000007433687550786384556_);stroke-width:0.3;enable-background:new    ;}
	
		.st23{opacity:0.24;fill:none;stroke:url(#SVGID_00000003800574607705154370000001847263507547794870_);stroke-width:0.3;enable-background:new    ;}
	
		.st24{opacity:0.25;fill:none;stroke:url(#SVGID_00000034070409806006857980000005274956804651884213_);stroke-width:0.3;enable-background:new    ;}
	
		.st25{opacity:0.26;fill:none;stroke:url(#SVGID_00000159446044135779657150000014112710920511756710_);stroke-width:0.3;enable-background:new    ;}
	
		.st26{opacity:0.27;fill:none;stroke:url(#SVGID_00000075852048446857854280000017673110035806000544_);stroke-width:0.3;enable-background:new    ;}
	
		.st27{opacity:0.28;fill:none;stroke:url(#SVGID_00000103265988712159018610000009266980116938614146_);stroke-width:0.3;enable-background:new    ;}
	
		.st28{opacity:0.29;fill:none;stroke:url(#SVGID_00000052064263979490332430000011582098636275411646_);stroke-width:0.3;enable-background:new    ;}
	
		.st29{opacity:0.3;fill:none;stroke:url(#SVGID_00000142157392788460461070000005222615453042093485_);stroke-width:0.3;enable-background:new    ;}
	
		.st30{opacity:0.31;fill:none;stroke:url(#SVGID_00000077284373779840981820000010315544448544891043_);stroke-width:0.3;enable-background:new    ;}
	
		.st31{opacity:0.32;fill:none;stroke:url(#SVGID_00000100349275551202385030000009943691613257235866_);stroke-width:0.3;enable-background:new    ;}
	
		.st32{opacity:0.33;fill:none;stroke:url(#SVGID_00000147898255077582992880000017742996724517389736_);stroke-width:0.3;enable-background:new    ;}
	
		.st33{opacity:0.34;fill:none;stroke:url(#SVGID_00000070805739346112260400000016863641473496993719_);stroke-width:0.3;enable-background:new    ;}
	
		.st34{opacity:0.35;fill:none;stroke:url(#SVGID_00000032619228779641006790000016624592304852396991_);stroke-width:0.3;enable-background:new    ;}
	
		.st35{opacity:0.36;fill:none;stroke:url(#SVGID_00000052825779800840793850000016585458639599243432_);stroke-width:0.3;enable-background:new    ;}
	
		.st36{opacity:0.37;fill:none;stroke:url(#SVGID_00000092433869149196300280000008105709481626033078_);stroke-width:0.3;enable-background:new    ;}
	
		.st37{opacity:0.38;fill:none;stroke:url(#SVGID_00000157305083229058003840000012690045539337861273_);stroke-width:0.3;enable-background:new    ;}
	
		.st38{opacity:0.39;fill:none;stroke:url(#SVGID_00000137104171974424610390000005898665690294527658_);stroke-width:0.3;enable-background:new    ;}
	
		.st39{opacity:0.4;fill:none;stroke:url(#SVGID_00000177473693196458647370000011535553584642653834_);stroke-width:0.3;enable-background:new    ;}
	
		.st40{opacity:0.41;fill:none;stroke:url(#SVGID_00000001659597721572397360000011348069310793440169_);stroke-width:0.3;enable-background:new    ;}
	
		.st41{opacity:0.42;fill:none;stroke:url(#SVGID_00000014625580463791465570000014315066428128885947_);stroke-width:0.3;enable-background:new    ;}
	
		.st42{opacity:0.43;fill:none;stroke:url(#SVGID_00000122680334156425203820000003143524129897720718_);stroke-width:0.3;enable-background:new    ;}
	
		.st43{opacity:0.44;fill:none;stroke:url(#SVGID_00000058559360700505696600000006321898574975836566_);stroke-width:0.3;enable-background:new    ;}
	
		.st44{opacity:0.45;fill:none;stroke:url(#SVGID_00000151541662937516721510000013860080736400369298_);stroke-width:0.3;enable-background:new    ;}
	
		.st45{opacity:0.46;fill:none;stroke:url(#SVGID_00000025414922069298457620000014871549436689891258_);stroke-width:0.3;enable-background:new    ;}
	
		.st46{opacity:0.47;fill:none;stroke:url(#SVGID_00000078038953628586419640000014473451083817729156_);stroke-width:0.3;enable-background:new    ;}
	
		.st47{opacity:0.48;fill:none;stroke:url(#SVGID_00000085246112856334849260000007857210406716984229_);stroke-width:0.3;enable-background:new    ;}
	
		.st48{opacity:0.49;fill:none;stroke:url(#SVGID_00000068676455769639061190000005268870988728342947_);stroke-width:0.3;enable-background:new    ;}
	
		.st49{opacity:0.5;fill:none;stroke:url(#SVGID_00000111186882395706411340000011612936174595625121_);stroke-width:0.3;enable-background:new    ;}
	
		.st50{opacity:0.51;fill:none;stroke:url(#SVGID_00000176746854742613268010000001057151337760078757_);stroke-width:0.3;enable-background:new    ;}
	
		.st51{opacity:0.52;fill:none;stroke:url(#SVGID_00000163793826020445135230000016072025183562501051_);stroke-width:0.3;enable-background:new    ;}
	
		.st52{opacity:0.53;fill:none;stroke:url(#SVGID_00000079479294337860581230000008587504070063162019_);stroke-width:0.3;enable-background:new    ;}
	
		.st53{opacity:0.54;fill:none;stroke:url(#SVGID_00000154426637830416794730000015911723569003619741_);stroke-width:0.3;enable-background:new    ;}
	
		.st54{opacity:0.55;fill:none;stroke:url(#SVGID_00000084506404970347939130000003463448943181085108_);stroke-width:0.3;enable-background:new    ;}
	
		.st55{opacity:0.56;fill:none;stroke:url(#SVGID_00000160186051505185118240000008710764450185193616_);stroke-width:0.3;enable-background:new    ;}
	
		.st56{opacity:0.57;fill:none;stroke:url(#SVGID_00000155843269044794652960000014378282802596767382_);stroke-width:0.3;enable-background:new    ;}
	
		.st57{opacity:0.58;fill:none;stroke:url(#SVGID_00000007401460077088645450000004548288725692158641_);stroke-width:0.3;enable-background:new    ;}
	
		.st58{opacity:0.59;fill:none;stroke:url(#SVGID_00000163778114653162286040000003331635202499929218_);stroke-width:0.3;enable-background:new    ;}
	
		.st59{opacity:0.6;fill:none;stroke:url(#SVGID_00000160189750027542372520000005044532778203892871_);stroke-width:0.3;enable-background:new    ;}
	
		.st60{opacity:0.61;fill:none;stroke:url(#SVGID_00000083801318667494464670000012213648190889825920_);stroke-width:0.3;enable-background:new    ;}
	
		.st61{opacity:0.62;fill:none;stroke:url(#SVGID_00000145037692605135727140000008585919204518571917_);stroke-width:0.3;enable-background:new    ;}
	
		.st62{opacity:0.63;fill:none;stroke:url(#SVGID_00000007421760980234301170000010052517756341941641_);stroke-width:0.3;enable-background:new    ;}
	
		.st63{opacity:0.64;fill:none;stroke:url(#SVGID_00000113349567957559962730000016960383383580573595_);stroke-width:0.3;enable-background:new    ;}
	
		.st64{opacity:0.65;fill:none;stroke:url(#SVGID_00000111186585909454039240000012939131270797910676_);stroke-width:0.3;enable-background:new    ;}
	
		.st65{opacity:0.66;fill:none;stroke:url(#SVGID_00000103988064698498574140000017956567543815759540_);stroke-width:0.3;enable-background:new    ;}
	
		.st66{opacity:0.67;fill:none;stroke:url(#SVGID_00000104702001628555051910000009061632058213049783_);stroke-width:0.3;enable-background:new    ;}
	
		.st67{opacity:0.68;fill:none;stroke:url(#SVGID_00000078026922442834106290000000190548565484211334_);stroke-width:0.3;enable-background:new    ;}
	
		.st68{opacity:0.69;fill:none;stroke:url(#SVGID_00000003820133149574634420000011053318579569808046_);stroke-width:0.3;enable-background:new    ;}
	
		.st69{opacity:0.7;fill:none;stroke:url(#SVGID_00000180341852984846996730000011628531877865132928_);stroke-width:0.3;enable-background:new    ;}
	
		.st70{opacity:0.71;fill:none;stroke:url(#SVGID_00000165950669815240623730000013343227639903120779_);stroke-width:0.3;enable-background:new    ;}
	
		.st71{opacity:0.72;fill:none;stroke:url(#SVGID_00000035492658181567589760000000690733861623885220_);stroke-width:0.3;enable-background:new    ;}
	
		.st72{opacity:0.73;fill:none;stroke:url(#SVGID_00000132768953054592959820000005470745405877970578_);stroke-width:0.3;enable-background:new    ;}
	
		.st73{opacity:0.74;fill:none;stroke:url(#SVGID_00000085210016321087015020000001687241803430153147_);stroke-width:0.3;enable-background:new    ;}
	
		.st74{opacity:0.75;fill:none;stroke:url(#SVGID_00000180346468848220130490000001802262888999911837_);stroke-width:0.3;enable-background:new    ;}
	
		.st75{opacity:0.76;fill:none;stroke:url(#SVGID_00000029038028684469577100000016104110818423471038_);stroke-width:0.3;enable-background:new    ;}
	
		.st76{opacity:0.77;fill:none;stroke:url(#SVGID_00000044876471451125881950000017095317778513543857_);stroke-width:0.3;enable-background:new    ;}
	
		.st77{opacity:0.78;fill:none;stroke:url(#SVGID_00000003814191708397834420000017354270970504494244_);stroke-width:0.3;enable-background:new    ;}
	
		.st78{opacity:0.79;fill:none;stroke:url(#SVGID_00000010274288615435180930000009990239104382436797_);stroke-width:0.3;enable-background:new    ;}
	
		.st79{opacity:0.8;fill:none;stroke:url(#SVGID_00000117639253972577560230000017772771136677173644_);stroke-width:0.3;enable-background:new    ;}
	
		.st80{opacity:0.81;fill:none;stroke:url(#SVGID_00000137838272516630753650000018071866699993093023_);stroke-width:0.3;enable-background:new    ;}
	
		.st81{opacity:0.82;fill:none;stroke:url(#SVGID_00000089568692969428389040000015819153842109983167_);stroke-width:0.3;enable-background:new    ;}
	
		.st82{opacity:0.83;fill:none;stroke:url(#SVGID_00000074437549675490365410000009826761198472629902_);stroke-width:0.3;enable-background:new    ;}
	
		.st83{opacity:0.84;fill:none;stroke:url(#SVGID_00000172424092834893473200000003513752901472922777_);stroke-width:0.3;enable-background:new    ;}
	
		.st84{opacity:0.85;fill:none;stroke:url(#SVGID_00000058573476109125306880000015191583985242059445_);stroke-width:0.3;enable-background:new    ;}
	
		.st85{opacity:0.86;fill:none;stroke:url(#SVGID_00000042717134202884193760000003303031904027184302_);stroke-width:0.3;enable-background:new    ;}
	
		.st86{opacity:0.87;fill:none;stroke:url(#SVGID_00000075870401242820216740000014171790720671931550_);stroke-width:0.3;enable-background:new    ;}
	
		.st87{opacity:0.88;fill:none;stroke:url(#SVGID_00000027605346464454916260000007380026289404096166_);stroke-width:0.3;enable-background:new    ;}
	
		.st88{opacity:0.89;fill:none;stroke:url(#SVGID_00000039813590320930136880000001791514440891318150_);stroke-width:0.3;enable-background:new    ;}
	
		.st89{opacity:0.9;fill:none;stroke:url(#SVGID_00000149369287218168831420000000196500992167978643_);stroke-width:0.3;enable-background:new    ;}
	
		.st90{opacity:0.91;fill:none;stroke:url(#SVGID_00000070822115752366004390000017057495129073996449_);stroke-width:0.3;enable-background:new    ;}
	
		.st91{opacity:0.92;fill:none;stroke:url(#SVGID_00000155854494538521906850000004641067913691183017_);stroke-width:0.3;enable-background:new    ;}
	
		.st92{opacity:0.93;fill:none;stroke:url(#SVGID_00000171689403352329071930000000026681569553449121_);stroke-width:0.3;enable-background:new    ;}
	
		.st93{opacity:0.94;fill:none;stroke:url(#SVGID_00000076591272402945658900000008423110768094973333_);stroke-width:0.3;enable-background:new    ;}
	
		.st94{opacity:0.95;fill:none;stroke:url(#SVGID_00000183236109865647818540000011735050243053412536_);stroke-width:0.3;enable-background:new    ;}
	
		.st95{opacity:0.96;fill:none;stroke:url(#SVGID_00000132075872955907459690000001728796916600070078_);stroke-width:0.3;enable-background:new    ;}
	
		.st96{opacity:0.97;fill:none;stroke:url(#SVGID_00000095299547108250878900000008978602913637565117_);stroke-width:0.3;enable-background:new    ;}
	
		.st97{opacity:0.98;fill:none;stroke:url(#SVGID_00000137116165385960466970000008768009326232454329_);stroke-width:0.3;enable-background:new    ;}
	
		.st98{opacity:0.99;fill:none;stroke:url(#SVGID_00000030470484142204493390000006116793148065013948_);stroke-width:0.3;enable-background:new    ;}
	.st99{fill:none;stroke:url(#SVGID_00000094608159597725452140000006282236651406371516_);stroke-width:0.3;}
</style>
<linearGradient id="SVGID_1_" gradientUnits="userSpaceOnUse" x1="268.906" y1="142.3759" x2="19.752" y2="182.8699" gradientTransform="matrix(1 0 0 -1 0 302)">
	<stop  offset="0" style="stop-color:#F9B233"/>
	<stop  offset="1" style="stop-color:#E9511B"/>
</linearGradient>
<path class="st0" d="M241.7,148.1c4.9,29.4,29.9,63.6,10.5,86.5c-18.9,22.2-56.9-0.6-86.2,2.6c-27.2,3-52.3,23.2-78.5,15.6
	c-28-8.1-50.9-30.4-63.1-56.4c-12-25.5-11.3-55.6-2-82.2c8.4-24,31.3-38.4,50.1-55.8c18.2-16.8,32.9-43.2,57.8-43.8
	c25-0.6,40.5,25.6,59.7,41.1c14.5,11.7,29.5,22.3,38.6,38.4C237.9,110.8,238.6,129.4,241.7,148.1z"/>
<linearGradient id="SVGID_00000164488837280426266840000013450546186666100655_" gradientUnits="userSpaceOnUse" x1="270.3554" y1="143.8357" x2="21.307" y2="179.7527" gradientTransform="matrix(1 0 0 -1 0 302)">
	<stop  offset="0" style="stop-color:#F9B233"/>
	<stop  offset="1" style="stop-color:#E9511B"/>
</linearGradient>
<path style="opacity:2.000000e-02;fill:none;stroke:url(#SVGID_00000164488837280426266840000013450546186666100655_);stroke-width:0.3;enable-background:new    ;" d="
	M243,147.3c5.4,29.2,30.9,62.9,12,86.1c-18.4,22.5-56.7,0.3-85.8,4.1c-27.1,3.5-51.7,24-78,16.9c-28.1-7.6-51.3-29.5-63.9-55.2
	c-12.4-25.2-12.2-55.2-3.4-81.9c7.9-24.1,30.5-38.8,49-56.5c17.8-17,32-43.6,56.8-44.6c24.9-1,40.8,24.8,60.3,40
	c14.6,11.4,29.8,21.7,39.1,37.6C238.5,110.2,239.5,128.7,243,147.3z"/>
<linearGradient id="SVGID_00000051380831135102260340000014905727927995298977_" gradientUnits="userSpaceOnUse" x1="271.7589" y1="145.3134" x2="22.9045" y2="176.6684" gradientTransform="matrix(1 0 0 -1 0 302)">
	<stop  offset="0" style="stop-color:#F9B233"/>
	<stop  offset="1" style="stop-color:#E9511B"/>
</linearGradient>
<path style="opacity:3.000000e-02;fill:none;stroke:url(#SVGID_00000051380831135102260340000014905727927995298977_);stroke-width:0.3;enable-background:new    ;" d="
	M244.3,146.4c5.9,29,32,62.2,13.5,85.6c-17.9,22.7-56.5,1.3-85.4,5.5c-26.9,3.9-51.1,24.8-77.4,18.2c-28.1-7.1-51.6-28.5-64.7-53.9
	c-12.8-24.9-13.2-54.8-4.9-81.5C32.8,96.1,55,81,73.1,63.1c17.4-17.3,31.1-44,55.8-45.4c24.8-1.4,41.1,24,60.8,38.8
	c14.8,11.2,30.1,21.1,39.7,36.8C239.2,109.5,240.5,128,244.3,146.4z"/>
<linearGradient id="SVGID_00000181780889482261770300000015646701592147858064_" gradientUnits="userSpaceOnUse" x1="273.1205" y1="146.8096" x2="24.546" y2="173.6196" gradientTransform="matrix(1 0 0 -1 0 302)">
	<stop  offset="0" style="stop-color:#F9B233"/>
	<stop  offset="1" style="stop-color:#E9511B"/>
</linearGradient>
<path style="opacity:4.000000e-02;fill:none;stroke:url(#SVGID_00000181780889482261770300000015646701592147858064_);stroke-width:0.3;enable-background:new    ;" d="
	M245.6,145.6c6.4,28.8,33,61.4,14.9,85c-17.5,22.9-56.3,2.3-85,6.9c-26.7,4.4-50.5,25.6-76.8,19.4c-28.1-6.6-52-27.5-65.4-52.6
	c-13.2-24.6-14.1-54.4-6.3-81.2c7-24.2,28.9-39.5,46.6-57.7c17.1-17.5,30.2-44.4,54.8-46.2c24.6-1.8,41.4,23.2,61.2,37.7
	c14.9,10.9,30.4,20.5,40.2,36C239.8,108.9,241.5,127.2,245.6,145.6z"/>
<linearGradient id="SVGID_00000132787490663167468750000000237096339525648028_" gradientUnits="userSpaceOnUse" x1="274.4377" y1="148.3221" x2="26.231" y2="170.6062" gradientTransform="matrix(1 0 0 -1 0 302)">
	<stop  offset="0" style="stop-color:#F9B233"/>
	<stop  offset="1" style="stop-color:#E9511B"/>
</linearGradient>
<path style="opacity:5.000000e-02;fill:none;stroke:url(#SVGID_00000132787490663167468750000000237096339525648028_);stroke-width:0.3;enable-background:new    ;" d="
	M246.8,144.7c6.9,28.6,33.9,60.6,16.4,84.5c-17,23.1-56,3.2-84.6,8.4c-26.6,4.8-49.8,26.3-76.2,20.7c-28.2-6.1-52.3-26.5-66.1-51.3
	c-13.6-24.3-15-54-7.8-80.8c6.6-24.2,28.1-39.9,45.4-58.3c16.7-17.7,29.3-44.7,53.8-47c24.5-2.2,41.7,22.5,61.7,36.5
	c15.1,10.6,30.6,19.9,40.7,35.2C240.4,108.2,242.4,126.5,246.8,144.7z"/>
<linearGradient id="SVGID_00000104666552346890064810000007136109037656422017_" gradientUnits="userSpaceOnUse" x1="275.7108" y1="149.8524" x2="27.9574" y2="167.6304" gradientTransform="matrix(1 0 0 -1 0 302)">
	<stop  offset="0" style="stop-color:#F9B233"/>
	<stop  offset="1" style="stop-color:#E9511B"/>
</linearGradient>
<path style="opacity:6.000000e-02;fill:none;stroke:url(#SVGID_00000104666552346890064810000007136109037656422017_);stroke-width:0.3;enable-background:new    ;" d="
	M248,143.8c7.4,28.4,34.9,59.8,17.9,83.9c-16.5,23.3-55.8,4.1-84.2,9.8c-26.4,5.2-49.2,27.1-75.6,21.9c-28.2-5.6-52.6-25.6-66.8-50
	c-14-24-15.9-53.5-9.2-80.4c6.1-24.3,27.3-40.2,44.2-58.9c16.3-17.9,28.4-45.1,52.8-47.7c24.4-2.6,41.9,21.7,62.1,35.3
	C204.5,68,220.1,77,230.4,92.1C240.9,107.6,243.3,125.8,248,143.8z"/>
<linearGradient id="SVGID_00000067918513798031950790000014392705656896319116_" gradientUnits="userSpaceOnUse" x1="276.9383" y1="151.3953" x2="29.7238" y2="164.6903" gradientTransform="matrix(1 0 0 -1 0 302)">
	<stop  offset="0" style="stop-color:#F9B233"/>
	<stop  offset="1" style="stop-color:#E9511B"/>
</linearGradient>
<path style="opacity:7.000000e-02;fill:none;stroke:url(#SVGID_00000067918513798031950790000014392705656896319116_);stroke-width:0.3;enable-background:new    ;" d="
	M249.1,142.9c7.9,28.1,35.8,59,19.3,83.3c-16.1,23.5-55.5,5.1-83.7,11.2c-26.2,5.7-48.5,27.8-74.9,23.1
	c-28.2-5.1-52.8-24.6-67.5-48.7C28,188,25.5,158.6,31.8,131.8c5.7-24.3,26.4-40.5,43-59.4c15.9-18.2,27.5-45.4,51.7-48.4
	c24.3-3,42.2,20.9,62.6,34.1c15.4,10,31.1,18.8,41.6,33.6C241.5,106.9,244.1,125,249.1,142.9z"/>
<linearGradient id="SVGID_00000040564173716253000240000015903585617899774879_" gradientUnits="userSpaceOnUse" x1="278.122" y1="152.9535" x2="31.5323" y2="161.7896" gradientTransform="matrix(1 0 0 -1 0 302)">
	<stop  offset="0" style="stop-color:#F9B233"/>
	<stop  offset="1" style="stop-color:#E9511B"/>
</linearGradient>
<path style="opacity:8.000000e-02;fill:none;stroke:url(#SVGID_00000040564173716253000240000015903585617899774879_);stroke-width:0.3;enable-background:new    ;" d="
	M250.3,142c8.4,27.9,36.8,58.2,20.7,82.7c-15.6,23.7-55.2,6-83.2,12.5c-26,6.1-47.9,28.5-74.2,24.3c-28.2-4.6-53.1-23.6-68.1-47.4
	c-14.7-23.3-17.7-52.6-12-79.5c5.2-24.3,25.6-40.8,41.8-59.9C90.9,56.3,101.9,29,126,25.5c24.1-3.4,42.4,20.1,62.9,33
	c15.5,9.7,31.3,18.2,42.1,32.8C242,106.3,245,124.2,250.3,142z"/>
<linearGradient id="SVGID_00000123399081404084608420000011870876223276440978_" gradientUnits="userSpaceOnUse" x1="279.2606" y1="154.5226" x2="33.379" y2="158.9266" gradientTransform="matrix(1 0 0 -1 0 302)">
	<stop  offset="0" style="stop-color:#F9B233"/>
	<stop  offset="1" style="stop-color:#E9511B"/>
</linearGradient>
<path style="opacity:9.000000e-02;fill:none;stroke:url(#SVGID_00000123399081404084608420000011870876223276440978_);stroke-width:0.3;enable-background:new    ;" d="
	M251.4,141c8.8,27.7,37.7,57.4,22.1,82c-15.1,23.9-54.9,6.9-82.7,13.9c-25.8,6.5-47.2,29.3-73.5,25.4c-28.1-4.1-53.3-22.6-68.7-46.1
	c-15.1-23-18.6-52.1-13.3-79C40,113.1,60,96.2,75.8,76.9c15.2-18.6,25.7-46,49.6-49.8c24-3.8,42.6,19.3,63.3,31.8
	c15.6,9.4,31.6,17.6,42.5,31.9C242.5,105.6,245.8,123.4,251.4,141z"/>
<linearGradient id="SVGID_00000129897661028985323500000014703188133396857773_" gradientUnits="userSpaceOnUse" x1="280.355" y1="156.1034" x2="35.2649" y2="156.1034" gradientTransform="matrix(1 0 0 -1 0 302)">
	<stop  offset="0" style="stop-color:#F9B233"/>
	<stop  offset="1" style="stop-color:#E9511B"/>
</linearGradient>
<path style="opacity:0.1;fill:none;stroke:url(#SVGID_00000129897661028985323500000014703188133396857773_);stroke-width:0.3;enable-background:new    ;" d="
	M252.5,140.1c9.3,27.4,38.6,56.5,23.5,81.4c-14.6,24.1-54.6,7.8-82.2,15.3c-25.6,6.9-46.5,29.9-72.8,26.6
	c-28.1-3.6-53.5-21.6-69.3-44.7c-15.4-22.7-19.5-51.6-14.7-78.5c4.3-24.3,24-41.4,39.4-60.9c14.8-18.7,24.8-46.3,48.6-50.5
	c23.8-4.2,42.8,18.5,63.7,30.6c15.7,9.1,31.8,17,42.9,31.1C243,104.9,246.6,122.6,252.5,140.1z"/>
<linearGradient id="SVGID_00000153705200207398685210000017477411246666258087_" gradientUnits="userSpaceOnUse" x1="281.4025" y1="157.6949" x2="37.1865" y2="153.3199" gradientTransform="matrix(1 0 0 -1 0 302)">
	<stop  offset="0" style="stop-color:#F9B233"/>
	<stop  offset="1" style="stop-color:#E9511B"/>
</linearGradient>
<path style="opacity:0.11;fill:none;stroke:url(#SVGID_00000153705200207398685210000017477411246666258087_);stroke-width:0.3;enable-background:new    ;" d="
	M253.5,139.1c9.8,27.2,39.4,55.7,24.9,80.7c-14.1,24.2-54.3,8.7-81.6,16.6c-25.4,7.3-45.8,30.6-72.1,27.7
	C96.6,261,71,243.5,54.9,220.7c-15.8-22.3-20.3-51.1-16-77.9c3.8-24.3,23.2-41.7,38.1-61.3c14.4-18.9,23.8-46.5,47.5-51.1
	c23.7-4.6,43,17.7,64,29.4c15.8,8.8,31.9,16.4,43.3,30.3C243.4,104.2,247.3,121.8,253.5,139.1z"/>
<linearGradient id="SVGID_00000057128031942017528370000010909822397544182672_" gradientUnits="userSpaceOnUse" x1="282.4047" y1="159.2944" x2="39.1448" y2="150.5774" gradientTransform="matrix(1 0 0 -1 0 302)">
	<stop  offset="0" style="stop-color:#F9B233"/>
	<stop  offset="1" style="stop-color:#E9511B"/>
</linearGradient>
<path style="opacity:0.12;fill:none;stroke:url(#SVGID_00000057128031942017528370000010909822397544182672_);stroke-width:0.3;enable-background:new    ;" d="
	M254.5,138.1c10.2,26.9,40.3,54.8,26.2,79.9c-13.7,24.4-53.9,9.6-81,17.9c-25.2,7.7-45.1,31.3-71.3,28.8
	c-28-2.6-53.9-19.7-70.4-42.1c-16.1-22-21.1-50.6-17.4-77.4c3.4-24.2,22.3-41.9,36.9-61.8c14-19.1,22.9-46.8,46.4-51.7
	c23.5-5,43.1,16.9,64.3,28.2c15.9,8.5,32.1,15.8,43.7,29.4C243.9,103.6,248,121,254.5,138.1z"/>
<linearGradient id="SVGID_00000041290617708477922410000000712022068093066396_" gradientUnits="userSpaceOnUse" x1="283.3627" y1="160.9028" x2="41.1396" y2="147.8758" gradientTransform="matrix(1 0 0 -1 0 302)">
	<stop  offset="0" style="stop-color:#F9B233"/>
	<stop  offset="1" style="stop-color:#E9511B"/>
</linearGradient>
<path style="opacity:0.13;fill:none;stroke:url(#SVGID_00000041290617708477922410000000712022068093066396_);stroke-width:0.3;enable-background:new    ;" d="
	M255.5,137.2c10.7,26.6,41.1,53.9,27.6,79.2c-13.2,24.5-53.6,10.5-80.4,19.2c-24.9,8.1-44.4,31.9-70.6,30
	c-28-2.1-54.1-18.7-70.9-40.7c-16.5-21.6-22-50-18.7-76.8c3-24.2,21.5-42.1,35.7-62.2c13.6-19.3,22-47,45.3-52.3
	c23.3-5.4,43.3,16.1,64.5,27c16,8.2,32.3,15.2,44.1,28.6C244.3,102.9,248.7,120.2,255.5,137.2z"/>
<linearGradient id="SVGID_00000128474902841310143160000018032816450913191100_" gradientUnits="userSpaceOnUse" x1="284.2735" y1="162.5177" x2="43.1662" y2="145.2166" gradientTransform="matrix(1 0 0 -1 0 302)">
	<stop  offset="0" style="stop-color:#F9B233"/>
	<stop  offset="1" style="stop-color:#E9511B"/>
</linearGradient>
<path style="opacity:0.14;fill:none;stroke:url(#SVGID_00000128474902841310143160000018032816450913191100_);stroke-width:0.3;enable-background:new    ;" d="
	M256.5,136.2c11.1,26.3,41.9,53,28.9,78.5c-12.7,24.7-53.2,11.4-79.8,20.5c-24.7,8.5-43.6,32.6-69.8,31
	c-27.9-1.6-54.2-17.7-71.3-39.4c-16.8-21.3-22.8-49.5-20-76.2c2.5-24.2,20.7-42.3,34.4-62.5c13.2-19.4,21.1-47.2,44.2-52.9
	c23.2-5.8,43.4,15.3,64.8,25.8c16.1,7.9,32.4,14.6,44.5,27.7C244.6,102.2,249.4,119.4,256.5,136.2z"/>
<linearGradient id="SVGID_00000006673098909819559970000017579096911337094787_" gradientUnits="userSpaceOnUse" x1="285.1381" y1="164.1383" x2="45.2259" y2="142.5993" gradientTransform="matrix(1 0 0 -1 0 302)">
	<stop  offset="0" style="stop-color:#F9B233"/>
	<stop  offset="1" style="stop-color:#E9511B"/>
</linearGradient>
<path style="opacity:0.15;fill:none;stroke:url(#SVGID_00000006673098909819559970000017579096911337094787_);stroke-width:0.3;enable-background:new    ;" d="
	M257.4,135.2c11.5,26.1,42.7,52.1,30.2,77.7c-12.2,24.8-52.8,12.2-79.1,21.8c-24.5,8.9-42.9,33.2-69,32.1
	c-27.8-1.2-54.3-16.7-71.8-38c-17.1-20.9-23.6-48.9-21.3-75.6c2.1-24.1,19.8-42.5,33.2-62.9c12.8-19.6,20.2-47.4,43.1-53.5
	c23-6.1,43.5,14.6,65,24.6c16.2,7.6,32.6,14,44.8,26.9C245,101.5,250.1,118.6,257.4,135.2z"/>
<linearGradient id="SVGID_00000049183737532298650530000000867295353535077558_" gradientUnits="userSpaceOnUse" x1="285.9588" y1="165.7636" x2="47.3205" y2="140.0256" gradientTransform="matrix(1 0 0 -1 0 302)">
	<stop  offset="0" style="stop-color:#F9B233"/>
	<stop  offset="1" style="stop-color:#E9511B"/>
</linearGradient>
<path style="opacity:0.16;fill:none;stroke:url(#SVGID_00000049183737532298650530000000867295353535077558_);stroke-width:0.3;enable-background:new    ;" d="
	M258.3,134.1c11.9,25.8,43.5,51.2,31.4,76.9c-11.7,24.9-52.4,13.1-78.4,23.1c-24.2,9.3-42.1,33.8-68.1,33.2
	c-27.8-0.7-54.4-15.7-72.2-36.7c-17.4-20.5-24.4-48.3-22.6-74.9c1.6-24.1,19-42.7,32-63.2c12.4-19.7,19.3-47.5,42-54
	c22.8-6.5,43.6,13.8,65.2,23.4c16.3,7.3,32.7,13.4,45.1,26C245.3,100.8,250.7,117.8,258.3,134.1z"/>
<linearGradient id="SVGID_00000054983905063888385390000012715020572474422945_" gradientUnits="userSpaceOnUse" x1="286.7324" y1="167.3923" x2="49.443" y2="137.4953" gradientTransform="matrix(1 0 0 -1 0 302)">
	<stop  offset="0" style="stop-color:#F9B233"/>
	<stop  offset="1" style="stop-color:#E9511B"/>
</linearGradient>
<path style="opacity:0.17;fill:none;stroke:url(#SVGID_00000054983905063888385390000012715020572474422945_);stroke-width:0.3;enable-background:new    ;" d="
	M259.1,133.1c12.4,25.5,44.3,50.3,32.7,76.1c-11.2,25-52,13.9-77.7,24.3c-24,9.7-41.4,34.4-67.3,34.2c-27.7-0.2-54.5-14.7-72.6-35.3
	c-17.7-20.2-25.1-47.7-23.8-74.3c1.2-24,18.2-42.9,30.7-63.5C93.1,74.7,99.4,46.9,121.9,40c22.6-6.9,43.7,13,65.4,22.2
	c16.3,7,32.8,12.8,45.4,25.2C245.6,100.2,251.3,116.9,259.1,133.1z"/>
<linearGradient id="SVGID_00000106146356932776902210000015385644966108228235_" gradientUnits="userSpaceOnUse" x1="287.4598" y1="169.0248" x2="51.5965" y2="135.0088" gradientTransform="matrix(1 0 0 -1 0 302)">
	<stop  offset="0" style="stop-color:#F9B233"/>
	<stop  offset="1" style="stop-color:#E9511B"/>
</linearGradient>
<path style="opacity:0.18;fill:none;stroke:url(#SVGID_00000106146356932776902210000015385644966108228235_);stroke-width:0.3;enable-background:new    ;" d="
	M259.9,132.1c12.8,25.2,45,49.3,33.9,75.2c-10.7,25.1-51.5,14.7-77,25.5c-23.7,10-40.6,35-66.5,35.2c-27.6,0.3-54.6-13.8-73-33.9
	c-18-19.8-25.9-47.1-25.1-73.6c0.8-23.9,17.4-43,29.5-63.8c11.7-20,17.4-47.8,39.8-55c22.4-7.2,43.8,12.2,65.6,21.1
	c16.4,6.7,33,12.2,45.7,24.3C245.9,99.5,251.8,116.1,259.9,132.1z"/>
<linearGradient id="SVGID_00000160168453759535404320000003522835127780212864_" gradientUnits="userSpaceOnUse" x1="288.1432" y1="170.6566" x2="53.7796" y2="132.5656" gradientTransform="matrix(1 0 0 -1 0 302)">
	<stop  offset="0" style="stop-color:#F9B233"/>
	<stop  offset="1" style="stop-color:#E9511B"/>
</linearGradient>
<path style="opacity:0.19;fill:none;stroke:url(#SVGID_00000160168453759535404320000003522835127780212864_);stroke-width:0.3;enable-background:new    ;" d="
	M260.7,131.1c13.2,24.9,45.7,48.4,35.2,74.4c-10.3,25.2-51.1,15.6-76.3,26.7c-23.4,10.4-39.9,35.5-65.6,36.2
	c-27.5,0.7-54.6-12.8-73.3-32.6c-18.3-19.4-26.7-46.5-26.3-72.9c0.3-23.9,16.5-43.2,28.2-64.1c11.3-20.1,16.5-47.9,38.6-55.5
	c22.2-7.6,43.9,11.4,65.7,19.9c16.5,6.4,33.1,11.6,46,23.4C246.2,98.8,252.3,115.2,260.7,131.1z"/>
<linearGradient id="SVGID_00000135664956762352520340000007597662153261124779_" gradientUnits="userSpaceOnUse" x1="288.7811" y1="172.2906" x2="55.9899" y2="130.1686" gradientTransform="matrix(1 0 0 -1 0 302)">
	<stop  offset="0" style="stop-color:#F9B233"/>
	<stop  offset="1" style="stop-color:#E9511B"/>
</linearGradient>
<path style="opacity:0.2;fill:none;stroke:url(#SVGID_00000135664956762352520340000007597662153261124779_);stroke-width:0.3;enable-background:new    ;" d="
	M261.5,130c13.6,24.5,46.4,47.4,36.4,73.5c-9.8,25.3-50.6,16.4-75.5,27.9c-23.2,10.8-39.1,36.1-64.7,37.2
	c-27.4,1.2-54.7-11.8-73.6-31.2c-18.6-19-27.4-45.9-27.5-72.2c-0.1-23.8,15.7-43.3,27-64.3C94.3,80.7,99.1,52.9,121,45
	c21.9-7.9,43.9,10.6,65.8,18.7c16.5,6.1,33.1,10.9,46.2,22.6C246.4,98.1,252.9,114.4,261.5,130z"/>
<linearGradient id="SVGID_00000097475797526023951700000002530693568330460582_" gradientUnits="userSpaceOnUse" x1="289.3737" y1="173.9225" x2="58.2268" y2="127.8165" gradientTransform="matrix(1 0 0 -1 0 302)">
	<stop  offset="0" style="stop-color:#F9B233"/>
	<stop  offset="1" style="stop-color:#E9511B"/>
</linearGradient>
<path style="opacity:0.21;fill:none;stroke:url(#SVGID_00000097475797526023951700000002530693568330460582_);stroke-width:0.3;enable-background:new    ;" d="
	M262.2,129c14,24.2,47.1,46.5,37.5,72.6c-9.3,25.4-50.1,17.2-74.8,29.1c-22.9,11.1-38.3,36.6-63.8,38.1
	c-27.2,1.6-54.7-10.8-73.9-29.8c-18.9-18.6-28.1-45.3-28.7-71.5c-0.5-23.7,14.9-43.4,25.7-64.5C94.8,82.6,99,54.9,120.7,46.6
	c21.7-8.3,43.9,9.8,65.9,17.5c16.6,5.8,33.2,10.3,46.4,21.7C246.6,97.5,253.3,113.6,262.2,129z"/>
<linearGradient id="SVGID_00000168095973838030908670000007438500402626781080_" gradientUnits="userSpaceOnUse" x1="289.92" y1="175.5531" x2="60.4886" y2="125.5101" gradientTransform="matrix(1 0 0 -1 0 302)">
	<stop  offset="0" style="stop-color:#F9B233"/>
	<stop  offset="1" style="stop-color:#E9511B"/>
</linearGradient>
<path style="opacity:0.22;fill:none;stroke:url(#SVGID_00000168095973838030908670000007438500402626781080_);stroke-width:0.3;enable-background:new    ;" d="
	M262.9,127.9c14.3,23.9,47.8,45.5,38.7,71.7c-8.8,25.4-49.6,17.9-74,30.3C205,241.3,190.1,267,164.7,269
	c-27.1,2.1-54.7-9.9-74.2-28.5c-19.1-18.2-28.8-44.6-29.8-70.7c-0.9-23.6,14-43.5,24.5-64.7C95.3,84.6,99,56.8,120.4,48.3
	c21.5-8.6,43.9,9,66,16.3c16.6,5.5,33.3,9.7,46.7,20.8C246.8,96.8,253.8,112.7,262.9,127.9z"/>
<linearGradient id="SVGID_00000044163701637493123790000006801761091662014101_" gradientUnits="userSpaceOnUse" x1="290.4218" y1="177.18" x2="62.775" y2="123.249" gradientTransform="matrix(1 0 0 -1 0 302)">
	<stop  offset="0" style="stop-color:#F9B233"/>
	<stop  offset="1" style="stop-color:#E9511B"/>
</linearGradient>
<path style="opacity:0.23;fill:none;stroke:url(#SVGID_00000044163701637493123790000006801761091662014101_);stroke-width:0.3;enable-background:new    ;" d="
	M263.5,126.8c14.7,23.6,48.4,44.5,39.8,70.8c-8.3,25.5-49.1,18.7-73.2,31.4c-22.3,11.8-36.7,37.6-62,40c-27,2.5-54.6-8.9-74.4-27.1
	c-19.4-17.9-29.5-44-31-69.9c-1.4-23.5,13.2-43.6,23.2-64.9c9.7-20.6,12.9-48.2,34.1-57.2c21.3-8.9,43.9,8.3,66,15.1
	c16.6,5.2,33.3,9.1,46.9,20C247,96.1,254.2,111.9,263.5,126.8z"/>
<linearGradient id="SVGID_00000121957538057750095740000011126828037126316476_" gradientUnits="userSpaceOnUse" x1="290.879" y1="178.8051" x2="65.0853" y2="121.035" gradientTransform="matrix(1 0 0 -1 0 302)">
	<stop  offset="0" style="stop-color:#F9B233"/>
	<stop  offset="1" style="stop-color:#E9511B"/>
</linearGradient>
<path style="opacity:0.24;fill:none;stroke:url(#SVGID_00000121957538057750095740000011126828037126316476_);stroke-width:0.3;enable-background:new    ;" d="
	M264.2,125.8c15.1,23.2,49,43.5,40.9,69.8c-7.8,25.5-48.6,19.5-72.3,32.5c-22,12.1-35.9,38.1-61,40.9c-26.8,3-54.6-7.9-74.6-25.7
	C77.5,225.9,67,200,65,174.2c-1.8-23.4,12.4-43.6,22-65.1c9.2-20.6,12-48.3,32.9-57.5c21-9.3,43.9,7.5,66.1,14
	c16.7,4.9,33.4,8.5,47,19.1C247.1,95.4,254.6,111,264.2,125.8z"/>
<linearGradient id="SVGID_00000036955970521885600110000007983289668426856860_" gradientUnits="userSpaceOnUse" x1="291.2915" y1="180.4232" x2="67.4172" y2="118.8672" gradientTransform="matrix(1 0 0 -1 0 302)">
	<stop  offset="0" style="stop-color:#F9B233"/>
	<stop  offset="1" style="stop-color:#E9511B"/>
</linearGradient>
<path style="opacity:0.25;fill:none;stroke:url(#SVGID_00000036955970521885600110000007983289668426856860_);stroke-width:0.3;enable-background:new    ;" d="
	M264.7,124.7c15.4,22.9,49.6,42.5,42,68.9c-7.3,25.6-48.1,20.2-71.5,33.6c-21.7,12.5-35.1,38.6-60.1,41.8
	c-26.7,3.4-54.5-7-74.8-24.4c-19.9-17.1-30.8-42.6-33.2-68.3C65.1,153,78.8,132.6,88,111.1c8.8-20.7,11-48.3,31.8-57.9
	c20.8-9.6,43.9,6.7,66.1,12.8c16.7,4.6,33.4,7.9,47.2,18.2C247.2,94.8,254.9,110.2,264.7,124.7z"/>
<linearGradient id="SVGID_00000025428213010556181760000003280162236428541375_" gradientUnits="userSpaceOnUse" x1="291.6599" y1="182.0373" x2="69.7697" y2="116.7463" gradientTransform="matrix(1 0 0 -1 0 302)">
	<stop  offset="0" style="stop-color:#F9B233"/>
	<stop  offset="1" style="stop-color:#E9511B"/>
</linearGradient>
<path style="opacity:0.26;fill:none;stroke:url(#SVGID_00000025428213010556181760000003280162236428541375_);stroke-width:0.3;enable-background:new    ;" d="
	M265.3,123.6c15.8,22.5,50.2,41.5,43.1,67.9c-6.9,25.6-47.6,21-70.6,34.7c-21.4,12.8-34.3,39-59.1,42.6c-26.5,3.9-54.4-6-74.9-23
	c-20.1-16.7-31.5-41.9-34.3-67.5c-2.6-23.1,10.7-43.7,19.5-65.3c8.4-20.8,10.1-48.3,30.6-58.2c20.5-9.9,43.8,5.9,66,11.6
	c16.7,4.3,33.4,7.3,47.3,17.3C247.3,94.1,255.3,109.3,265.3,123.6z"/>
<linearGradient id="SVGID_00000075842566456712136070000009440268238325938352_" gradientUnits="userSpaceOnUse" x1="291.9828" y1="183.6437" x2="72.1399" y2="114.6717" gradientTransform="matrix(1 0 0 -1 0 302)">
	<stop  offset="0" style="stop-color:#F9B233"/>
	<stop  offset="1" style="stop-color:#E9511B"/>
</linearGradient>
<path style="opacity:0.27;fill:none;stroke:url(#SVGID_00000075842566456712136070000009440268238325938352_);stroke-width:0.3;enable-background:new    ;" d="
	M265.8,122.6c16.1,22.2,50.7,40.5,44.1,66.9c-6.4,25.6-47,21.7-69.7,35.8c-21.1,13.1-33.4,39.4-58.1,43.5
	c-26.3,4.3-54.3-5.1-75.1-21.7c-20.3-16.3-32.1-41.2-35.4-66.7c-3-23,9.9-43.7,18.3-65.4c8-20.9,9.2-48.3,29.5-58.5
	c20.3-10.2,43.8,5.2,66,10.4c16.7,4,33.4,6.8,47.5,16.5C247.3,93.5,255.6,108.5,265.8,122.6z"/>
<linearGradient id="SVGID_00000124141995231678214670000007744080509456935602_" gradientUnits="userSpaceOnUse" x1="292.2668" y1="185.2414" x2="74.534" y2="112.6454" gradientTransform="matrix(1 0 0 -1 0 302)">
	<stop  offset="0" style="stop-color:#F9B233"/>
	<stop  offset="1" style="stop-color:#E9511B"/>
</linearGradient>
<path style="opacity:0.28;fill:none;stroke:url(#SVGID_00000124141995231678214670000007744080509456935602_);stroke-width:0.3;enable-background:new    ;" d="
	M266.3,121.5c16.5,21.8,51.3,39.5,45.2,65.9c-5.9,25.6-46.4,22.4-68.8,36.8c-20.8,13.4-32.6,39.9-57.1,44.3
	c-26.2,4.7-54.2-4.2-75.2-20.3c-20.5-15.8-32.7-40.5-36.5-65.8c-3.4-22.9,9.1-43.7,17-65.4c7.6-20.9,8.3-48.3,28.3-58.8
	c20-10.5,43.7,4.4,65.9,9.3c16.7,3.7,33.4,6.2,47.6,15.6C247.4,92.8,255.8,107.6,266.3,121.5z"/>
<linearGradient id="SVGID_00000072969829232356310780000011212932154200197265_" gradientUnits="userSpaceOnUse" x1="292.5045" y1="186.8315" x2="76.9434" y2="110.6664" gradientTransform="matrix(1 0 0 -1 0 302)">
	<stop  offset="0" style="stop-color:#F9B233"/>
	<stop  offset="1" style="stop-color:#E9511B"/>
</linearGradient>
<path style="opacity:0.29;fill:none;stroke:url(#SVGID_00000072969829232356310780000011212932154200197265_);stroke-width:0.3;enable-background:new    ;" d="
	M266.8,120.4c16.8,21.5,51.8,38.5,46.2,64.9c-5.4,25.6-45.9,23.1-67.9,37.9c-20.5,13.7-31.8,40.3-56.1,45.1
	c-26,5.2-54.1-3.2-75.3-19c-20.7-15.4-33.3-39.8-37.5-65c-3.8-22.7,8.3-43.7,15.8-65.5c7.2-21,7.5-48.2,27.2-59
	c19.8-10.8,43.6,3.7,65.8,8.1c16.7,3.4,33.4,5.6,47.7,14.7C247.4,92.2,256.1,106.8,266.8,120.4z"/>
<linearGradient id="SVGID_00000042724031382195503410000013974205111571983776_" gradientUnits="userSpaceOnUse" x1="292.6995" y1="188.4114" x2="79.3679" y2="108.7334" gradientTransform="matrix(1 0 0 -1 0 302)">
	<stop  offset="0" style="stop-color:#F9B233"/>
	<stop  offset="1" style="stop-color:#E9511B"/>
</linearGradient>
<path style="opacity:0.3;fill:none;stroke:url(#SVGID_00000042724031382195503410000013974205111571983776_);stroke-width:0.3;enable-background:new    ;" d="
	M267.2,119.4c17.1,21.1,52.3,37.5,47.2,63.9c-4.9,25.6-45.3,23.8-67,38.9c-20.2,14-30.9,40.6-55.1,45.9c-25.8,5.6-54-2.3-75.3-17.6
	c-20.9-15-33.9-39.1-38.5-64.1c-4.2-22.6,7.5-43.7,14.6-65.5c6.8-21,6.6-48.2,26-59.2c19.5-11.1,43.5,2.9,65.7,7
	c16.7,3.1,33.4,5,47.8,13.9C247.4,91.5,256.3,105.9,267.2,119.4z"/>
<linearGradient id="SVGID_00000087408057999942750310000010217248909649262008_" gradientUnits="userSpaceOnUse" x1="292.8528" y1="189.9813" x2="81.8093" y2="106.8503" gradientTransform="matrix(1 0 0 -1 0 302)">
	<stop  offset="0" style="stop-color:#F9B233"/>
	<stop  offset="1" style="stop-color:#E9511B"/>
</linearGradient>
<path style="opacity:0.31;fill:none;stroke:url(#SVGID_00000087408057999942750310000010217248909649262008_);stroke-width:0.3;enable-background:new    ;" d="
	M267.6,118.3c17.4,20.7,52.7,36.4,48.1,62.8c-4.5,25.6-44.7,24.5-66,39.9c-19.8,14.3-30.1,41-54.1,46.6c-25.6,6-53.8-1.4-75.3-16.3
	c-21.1-14.6-34.5-38.4-39.5-63.2c-4.6-22.4,6.7-43.6,13.4-65.5c6.4-21,5.7-48.1,24.9-59.5c19.2-11.4,43.4,2.2,65.6,5.8
	c16.7,2.8,33.3,4.4,47.8,13C247.4,90.9,256.5,105.1,267.6,118.3z"/>
<linearGradient id="SVGID_00000158016302356399792330000008474608105293582980_" gradientUnits="userSpaceOnUse" x1="292.9626" y1="191.5398" x2="84.2629" y2="105.0138" gradientTransform="matrix(1 0 0 -1 0 302)">
	<stop  offset="0" style="stop-color:#F9B233"/>
	<stop  offset="1" style="stop-color:#E9511B"/>
</linearGradient>
<path style="opacity:0.32;fill:none;stroke:url(#SVGID_00000158016302356399792330000008474608105293582980_);stroke-width:0.3;enable-background:new    ;" d="
	M267.9,117.2c17.7,20.3,53.2,35.4,49.1,61.8c-4,25.6-44.1,25.1-65.1,40.8c-19.5,14.6-29.2,41.4-53,47.4
	c-25.4,6.4-53.6-0.4-75.3-14.9c-21.3-14.2-35-37.6-40.5-62.3c-4.9-22.2,5.9-43.6,12.1-65.5c6-21.1,4.8-48,23.7-59.7
	c18.9-11.7,43.3,1.4,65.5,4.7c16.7,2.5,33.3,3.8,47.9,12.2C247.3,90.3,256.7,104.3,267.9,117.2z"/>
<linearGradient id="SVGID_00000111901124942836501330000018054738750597246885_" gradientUnits="userSpaceOnUse" x1="293.0303" y1="193.0861" x2="86.729" y2="103.2251" gradientTransform="matrix(1 0 0 -1 0 302)">
	<stop  offset="0" style="stop-color:#F9B233"/>
	<stop  offset="1" style="stop-color:#E9511B"/>
</linearGradient>
<path style="opacity:0.33;fill:none;stroke:url(#SVGID_00000111901124942836501330000018054738750597246885_);stroke-width:0.3;enable-background:new    ;" d="
	M268.2,116.1c18,20,53.6,34.4,50,60.7c-3.5,25.5-43.5,25.8-64.1,41.8c-19.2,14.8-28.4,41.7-52,48.1c-25.2,6.8-53.4,0.5-75.3-13.6
	c-21.5-13.8-35.6-36.9-41.4-61.3c-5.3-22.1,5.1-43.5,10.9-65.4c5.6-21.1,3.9-47.9,22.6-59.8c18.7-11.9,43.1,0.7,65.3,3.6
	c16.7,2.2,33.2,3.2,47.9,11.3C247.2,89.7,256.8,103.5,268.2,116.1z"/>
<linearGradient id="SVGID_00000047782515703186832280000014866543413331606167_" gradientUnits="userSpaceOnUse" x1="293.0589" y1="194.6176" x2="89.2087" y2="101.4836" gradientTransform="matrix(1 0 0 -1 0 302)">
	<stop  offset="0" style="stop-color:#F9B233"/>
	<stop  offset="1" style="stop-color:#E9511B"/>
</linearGradient>
<path style="opacity:0.34;fill:none;stroke:url(#SVGID_00000047782515703186832280000014866543413331606167_);stroke-width:0.3;enable-background:new    ;" d="
	M268.5,115.1c18.3,19.6,54,33.3,50.9,59.6c-3,25.5-42.8,26.4-63.1,42.7c-18.8,15.1-27.5,42-50.9,48.8c-25,7.2-53.2,1.4-75.3-12.3
	c-21.6-13.4-36.1-36.2-42.4-60.4c-5.7-21.9,4.3-43.4,9.7-65.3c5.2-21.1,3.1-47.8,21.4-60c18.4-12.2,43-0.1,65.1,2.5
	c16.7,1.9,33.1,2.7,47.9,10.4C247.1,89.1,256.9,102.6,268.5,115.1z"/>
<linearGradient id="SVGID_00000171677789520148026700000000777509892102612889_" gradientUnits="userSpaceOnUse" x1="293.0441" y1="196.1362" x2="91.6967" y2="99.7901" gradientTransform="matrix(1 0 0 -1 0 302)">
	<stop  offset="0" style="stop-color:#F9B233"/>
	<stop  offset="1" style="stop-color:#E9511B"/>
</linearGradient>
<path style="opacity:0.35;fill:none;stroke:url(#SVGID_00000171677789520148026700000000777509892102612889_);stroke-width:0.3;enable-background:new    ;" d="
	M268.8,114c18.6,19.2,54.4,32.3,51.7,58.5c-2.6,25.4-42.2,27.1-62.1,43.6c-18.5,15.4-26.7,42.3-49.9,49.5
	c-24.7,7.6-53,2.3-75.2-10.9c-21.8-12.9-36.6-35.4-43.3-59.4c-6.1-21.7,3.5-43.3,8.5-65.3c4.8-21.1,2.2-47.6,20.3-60.1
	c18.1-12.5,42.8-0.8,64.9,1.3c16.6,1.6,33.1,2.1,47.9,9.6C247,88.5,257,101.8,268.8,114z"/>
<linearGradient id="SVGID_00000129170244706211311110000005587153841571472822_" gradientUnits="userSpaceOnUse" x1="292.9921" y1="197.6412" x2="94.1982" y2="98.1452" gradientTransform="matrix(1 0 0 -1 0 302)">
	<stop  offset="0" style="stop-color:#F9B233"/>
	<stop  offset="1" style="stop-color:#E9511B"/>
</linearGradient>
<path style="opacity:0.36;fill:none;stroke:url(#SVGID_00000129170244706211311110000005587153841571472822_);stroke-width:0.3;enable-background:new    ;" d="
	M269,113c18.8,18.8,54.8,31.2,52.6,57.4c-2.1,25.4-41.5,27.7-61.1,44.5c-18.1,15.6-25.8,42.6-48.8,50.1c-24.5,8-52.7,3.2-75.1-9.6
	c-21.9-12.5-37.1-34.6-44.2-58.5c-6.4-21.5,2.7-43.2,7.3-65.1c4.4-21.1,1.3-47.5,19.1-60.2c17.8-12.7,42.6-1.5,64.7,0.2
	c16.6,1.3,33,1.5,47.9,8.7C246.8,87.9,257,101,269,113z"/>
<linearGradient id="SVGID_00000067225960949970742890000005299770895096751784_" gradientUnits="userSpaceOnUse" x1="292.8974" y1="199.1295" x2="96.7036" y2="96.5485" gradientTransform="matrix(1 0 0 -1 0 302)">
	<stop  offset="0" style="stop-color:#F9B233"/>
	<stop  offset="1" style="stop-color:#E9511B"/>
</linearGradient>
<path style="opacity:0.37;fill:none;stroke:url(#SVGID_00000067225960949970742890000005299770895096751784_);stroke-width:0.3;enable-background:new    ;" d="
	M269.2,111.9c19.1,18.4,55.1,30.2,53.4,56.3c-1.7,25.3-40.9,28.3-60,45.3c-17.8,15.9-25,42.9-47.7,50.7c-24.3,8.4-52.5,4-75-8.3
	c-22.1-12.1-37.5-33.9-45-57.5c-6.8-21.3,1.9-43.1,6.1-65c4.1-21.1,0.5-47.3,18-60.3c17.5-13,42.5-2.2,64.4-0.9
	c16.6,1,32.9,1,47.9,7.9C246.7,87.3,257,100.2,269.2,111.9z"/>
<linearGradient id="SVGID_00000033352788466219448120000010527891848247822734_" gradientUnits="userSpaceOnUse" x1="292.7649" y1="200.6009" x2="99.2179" y2="94.9979" gradientTransform="matrix(1 0 0 -1 0 302)">
	<stop  offset="0" style="stop-color:#F9B233"/>
	<stop  offset="1" style="stop-color:#E9511B"/>
</linearGradient>
<path style="opacity:0.38;fill:none;stroke:url(#SVGID_00000033352788466219448120000010527891848247822734_);stroke-width:0.3;enable-background:new    ;" d="
	M269.3,110.9c19.4,18,55.4,29.1,54.2,55.2c-1.2,25.3-40.2,28.8-59,46.2c-17.4,16.1-24.1,43.1-46.6,51.4c-24,8.8-52.2,4.9-74.8-7
	c-22.2-11.7-38-33.1-45.9-56.5c-7.1-21.1,1.1-43,4.9-64.9c3.7-21.1-0.4-47.2,16.8-60.4c17.2-13.2,42.2-2.9,64.2-2
	c16.5,0.8,32.8,0.4,47.8,7C246.5,86.8,257,99.4,269.3,110.9z"/>
<linearGradient id="SVGID_00000147185259466987059540000011401878242023400101_" gradientUnits="userSpaceOnUse" x1="292.5946" y1="202.0566" x2="101.7406" y2="93.4956" gradientTransform="matrix(1 0 0 -1 0 302)">
	<stop  offset="0" style="stop-color:#F9B233"/>
	<stop  offset="1" style="stop-color:#E9511B"/>
</linearGradient>
<path style="opacity:0.39;fill:none;stroke:url(#SVGID_00000147185259466987059540000011401878242023400101_);stroke-width:0.3;enable-background:new    ;" d="
	M269.5,109.8c19.6,17.6,55.7,28.1,55,54c-0.7,25.2-39.6,29.4-57.9,47c-17.1,16.3-23.2,43.4-45.5,51.9c-23.8,9.1-51.9,5.8-74.7-5.7
	c-22.3-11.3-38.4-32.3-46.7-55.5c-7.5-20.9,0.4-42.8,3.8-64.7c3.3-21.1-1.2-47,15.7-60.4c16.9-13.5,42-3.7,63.9-3
	c16.5,0.5,32.6-0.2,47.8,6.2C246.2,86.2,257,98.6,269.5,109.8z"/>
<linearGradient id="SVGID_00000016755148409872711050000007369059867657095303_" gradientUnits="userSpaceOnUse" x1="292.3847" y1="203.4926" x2="104.2657" y2="92.0396" gradientTransform="matrix(1 0 0 -1 0 302)">
	<stop  offset="0" style="stop-color:#F9B233"/>
	<stop  offset="1" style="stop-color:#E9511B"/>
</linearGradient>
<path style="opacity:0.4;fill:none;stroke:url(#SVGID_00000016755148409872711050000007369059867657095303_);stroke-width:0.3;enable-background:new    ;" d="
	M269.5,108.8c19.8,17.2,56,27,55.7,52.9c-0.3,25.1-38.9,30-56.9,47.8C251.6,226,246,253.1,224,262c-23.5,9.5-51.6,6.6-74.5-4.4
	c-22.4-10.8-38.9-31.6-47.5-54.5c-7.8-20.7-0.4-42.6,2.6-64.5c2.9-21-2-46.8,14.5-60.4c16.6-13.7,41.8-4.3,63.6-4.1
	c16.4,0.2,32.5-0.7,47.7,5.4C246,85.7,256.9,97.9,269.5,108.8z"/>
<linearGradient id="SVGID_00000028295713883923662490000009430608899960342158_" gradientUnits="userSpaceOnUse" x1="292.1377" y1="204.9104" x2="106.7957" y2="90.6314" gradientTransform="matrix(1 0 0 -1 0 302)">
	<stop  offset="0" style="stop-color:#F9B233"/>
	<stop  offset="1" style="stop-color:#E9511B"/>
</linearGradient>
<path style="opacity:0.41;fill:none;stroke:url(#SVGID_00000028295713883923662490000009430608899960342158_);stroke-width:0.3;enable-background:new    ;" d="
	M269.6,107.8c20.1,16.8,56.3,26,56.4,51.7c0.2,25-38.2,30.5-55.8,48.6c-16.4,16.8-21.5,43.8-43.3,53c-23.2,9.9-51.3,7.5-74.3-3.1
	c-22.5-10.4-39.3-30.8-48.3-53.5c-8.2-20.5-1.2-42.5,1.4-64.3c2.5-21-2.8-46.5,13.4-60.4c16.3-13.9,41.6-5,63.3-5.2
	c16.3-0.1,32.4-1.3,47.6,4.5C245.7,85.1,256.8,97.1,269.6,107.8z"/>
<linearGradient id="SVGID_00000026140264742264517680000013713343859185869733_" gradientUnits="userSpaceOnUse" x1="291.8554" y1="206.3093" x2="109.3294" y2="89.2704" gradientTransform="matrix(1 0 0 -1 0 302)">
	<stop  offset="0" style="stop-color:#F9B233"/>
	<stop  offset="1" style="stop-color:#E9511B"/>
</linearGradient>
<path style="opacity:0.42;fill:none;stroke:url(#SVGID_00000026140264742264517680000013713343859185869733_);stroke-width:0.3;enable-background:new    ;" d="
	M269.6,106.8c20.3,16.4,56.5,24.9,57.1,50.6c0.6,24.9-37.5,31-54.7,49.3c-16,17-20.6,44-42.2,53.6c-23,10.2-50.9,8.3-74-1.9
	c-22.6-10-39.7-30-49.1-52.4c-8.5-20.3-1.9-42.3,0.3-64.1c2.1-21-3.7-46.3,12.3-60.4c16-14.2,41.3-5.7,62.9-6.2
	c16.3-0.4,32.2-1.8,47.5,3.7C245.5,84.6,256.7,96.3,269.6,106.8z"/>
<linearGradient id="SVGID_00000060019151000070216100000003201958760517702810_" gradientUnits="userSpaceOnUse" x1="291.5323" y1="207.6876" x2="111.8613" y2="87.9553" gradientTransform="matrix(1 0 0 -1 0 302)">
	<stop  offset="0" style="stop-color:#F9B233"/>
	<stop  offset="1" style="stop-color:#E9511B"/>
</linearGradient>
<path style="opacity:0.43;fill:none;stroke:url(#SVGID_00000060019151000070216100000003201958760517702810_);stroke-width:0.3;enable-background:new    ;" d="
	M269.6,105.8c20.5,16,56.7,23.8,57.8,49.4c1,24.8-36.8,31.5-53.6,50.1c-15.6,17.2-19.8,44.2-41.1,54.1c-22.7,10.6-50.6,9.2-73.8-0.6
	c-22.7-9.6-40-29.2-49.8-51.4c-8.8-20.1-2.6-42.1-0.8-63.8c1.7-20.9-4.5-46.1,11.1-60.4c15.7-14.4,41-6.4,62.5-7.3
	c16.2-0.6,32.1-2.4,47.4,2.9C245.1,84.1,256.6,95.6,269.6,105.8z"/>
<linearGradient id="SVGID_00000164512517100347726380000001411868395194320549_" gradientUnits="userSpaceOnUse" x1="291.1772" y1="209.0466" x2="114.3992" y2="86.6882" gradientTransform="matrix(1 0 0 -1 0 302)">
	<stop  offset="0" style="stop-color:#F9B233"/>
	<stop  offset="1" style="stop-color:#E9511B"/>
</linearGradient>
<path style="opacity:0.44;fill:none;stroke:url(#SVGID_00000164512517100347726380000001411868395194320549_);stroke-width:0.3;enable-background:new    ;" d="
	M269.6,104.8c20.7,15.6,56.9,22.8,58.4,48.2c1.5,24.7-36.1,32-52.5,50.8c-15.3,17.4-18.9,44.3-39.9,54.6
	c-22.4,10.9-50.2,10-73.5,0.7c-22.8-9.1-40.4-28.4-50.5-50.3c-9.1-19.8-3.4-41.9-2-63.5c1.4-20.9-5.3-45.8,10-60.3
	c15.3-14.6,40.8-7.1,62.2-8.3c16.1-0.9,31.9-2.9,47.2,2.1C244.8,83.6,256.4,94.9,269.6,104.8z"/>
<linearGradient id="SVGID_00000017474723318885939050000005705916017795023002_" gradientUnits="userSpaceOnUse" x1="290.7842" y1="210.3832" x2="116.9322" y2="85.4656" gradientTransform="matrix(1 0 0 -1 0 302)">
	<stop  offset="0" style="stop-color:#F9B233"/>
	<stop  offset="1" style="stop-color:#E9511B"/>
</linearGradient>
<path style="opacity:0.45;fill:none;stroke:url(#SVGID_00000017474723318885939050000005705916017795023002_);stroke-width:0.3;enable-background:new    ;" d="
	M269.5,103.8c20.9,15.2,57.1,21.7,59.1,47c1.9,24.5-35.4,32.5-51.4,51.4c-14.9,17.6-18.1,44.5-38.8,55
	c-22.1,11.3-49.8,10.8-73.2,1.9c-22.9-8.7-40.7-27.6-51.2-49.3c-9.5-19.6-4.1-41.6-3.1-63.2c1-20.8-6.1-45.5,8.9-60.3
	c15-14.8,40.5-7.7,61.8-9.3c16-1.2,31.7-3.4,47.1,1.3C244.5,83.1,256.2,94.1,269.5,103.8z"/>
<linearGradient id="SVGID_00000067947648630249861140000012678509014549050538_" gradientUnits="userSpaceOnUse" x1="290.3558" y1="211.6993" x2="119.4648" y2="84.2906" gradientTransform="matrix(1 0 0 -1 0 302)">
	<stop  offset="0" style="stop-color:#F9B233"/>
	<stop  offset="1" style="stop-color:#E9511B"/>
</linearGradient>
<path style="opacity:0.46;fill:none;stroke:url(#SVGID_00000067947648630249861140000012678509014549050538_);stroke-width:0.3;enable-background:new    ;" d="
	M269.4,102.8c21.1,14.7,57.2,20.7,59.7,45.8c2.3,24.4-34.6,33-50.3,52.1c-14.5,17.8-17.2,44.6-37.7,55.4
	c-21.9,11.6-49.4,11.6-72.8,3.1c-22.9-8.3-41.1-26.8-51.9-48.2c-9.8-19.4-4.8-41.4-4.2-62.9c0.6-20.7-6.9-45.2,7.8-60.2
	c14.7-15,40.2-8.4,61.4-10.3c16-1.5,31.5-3.9,46.9,0.5C244.1,82.7,256,93.4,269.4,102.8z"/>
<linearGradient id="SVGID_00000168091266106404391730000001411329822407072687_" gradientUnits="userSpaceOnUse" x1="289.8948" y1="212.9921" x2="121.9958" y2="83.1604" gradientTransform="matrix(1 0 0 -1 0 302)">
	<stop  offset="0" style="stop-color:#F9B233"/>
	<stop  offset="1" style="stop-color:#E9511B"/>
</linearGradient>
<path style="opacity:0.47;fill:none;stroke:url(#SVGID_00000168091266106404391730000001411329822407072687_);stroke-width:0.3;enable-background:new    ;" d="
	M269.3,101.8c21.3,14.3,57.4,19.6,60.2,44.6c2.8,24.3-33.9,33.4-49.1,52.8c-14.1,17.9-16.3,44.7-36.5,55.9
	c-21.6,11.9-49,12.4-72.5,4.4c-23-7.9-41.4-26-52.5-47.1c-10.1-19.1-5.6-41.1-5.3-62.6c0.2-20.7-7.6-44.9,6.7-60.1
	c14.4-15.2,39.9-9,60.9-11.3c15.9-1.7,31.3-4.5,46.7-0.3C243.7,82.2,255.8,92.7,269.3,101.8z"/>
<linearGradient id="SVGID_00000000931688940155534860000001673054504721843592_" gradientUnits="userSpaceOnUse" x1="289.4021" y1="214.2607" x2="124.5251" y2="82.0745" gradientTransform="matrix(1 0 0 -1 0 302)">
	<stop  offset="0" style="stop-color:#F9B233"/>
	<stop  offset="1" style="stop-color:#E9511B"/>
</linearGradient>
<path style="opacity:0.48;fill:none;stroke:url(#SVGID_00000000931688940155534860000001673054504721843592_);stroke-width:0.3;enable-background:new    ;" d="
	M269.1,100.9c21.4,13.9,57.5,18.6,60.8,43.4c3.2,24.1-33.2,33.9-48,53.4c-13.8,18.1-15.5,44.8-35.4,56.2
	c-21.3,12.2-48.6,13.2-72.1,5.6c-23-7.4-41.7-25.2-53.2-46c-10.4-18.9-6.3-40.9-6.4-62.3c-0.1-20.6-8.4-44.6,5.6-59.9
	c14-15.3,39.5-9.7,60.5-12.3c15.8-2,31.1-5,46.5-1.1C243.3,81.8,255.5,92.1,269.1,100.9z"/>
<linearGradient id="SVGID_00000114075216709208760160000009573569943886828215_" gradientUnits="userSpaceOnUse" x1="288.8728" y1="215.5071" x2="127.0468" y2="81.0337" gradientTransform="matrix(1 0 0 -1 0 302)">
	<stop  offset="0" style="stop-color:#F9B233"/>
	<stop  offset="1" style="stop-color:#E9511B"/>
</linearGradient>
<path style="opacity:0.49;fill:none;stroke:url(#SVGID_00000114075216709208760160000009573569943886828215_);stroke-width:0.3;enable-background:new    ;" d="
	M268.9,100c21.6,13.5,57.6,17.5,61.3,42.2c3.6,24-32.4,34.3-46.9,54c-13.4,18.3-14.6,44.9-34.2,56.6c-21,12.5-48.2,13.9-71.7,6.8
	c-23.1-7-42-24.4-53.8-45c-10.7-18.6-7-40.6-7.5-61.9c-0.5-20.5-9.2-44.3,4.5-59.8c13.7-15.5,39.2-10.3,60-13.3
	c15.7-2.2,30.9-5.5,46.3-1.9C242.9,81.4,255.2,91.4,268.9,100z"/>
<linearGradient id="SVGID_00000089564064459620840080000012374023314317976204_" gradientUnits="userSpaceOnUse" x1="288.312" y1="216.7295" x2="129.564" y2="80.0386" gradientTransform="matrix(1 0 0 -1 0 302)">
	<stop  offset="0" style="stop-color:#F9B233"/>
	<stop  offset="1" style="stop-color:#E9511B"/>
</linearGradient>
<path style="opacity:0.5;fill:none;stroke:url(#SVGID_00000089564064459620840080000012374023314317976204_);stroke-width:0.3;enable-background:new    ;" d="
	M268.7,99c21.7,13.1,57.7,16.5,61.8,41c4,23.8-31.7,34.7-45.7,54.5c-13,18.4-13.7,44.9-33.1,57c-20.6,12.8-47.7,14.7-71.3,8
	c-23.1-6.6-42.2-23.5-54.3-43.9c-11-18.4-7.7-40.3-8.6-61.5c-0.9-20.4-9.9-44,3.4-59.6c13.4-15.7,38.9-10.9,59.5-14.3
	c15.6-2.5,30.7-6,46.1-2.7C242.4,80.9,254.9,90.7,268.7,99z"/>
<linearGradient id="SVGID_00000087393201337585487210000012322082585135423634_" gradientUnits="userSpaceOnUse" x1="287.7207" y1="217.9272" x2="132.0757" y2="79.0872" gradientTransform="matrix(1 0 0 -1 0 302)">
	<stop  offset="0" style="stop-color:#F9B233"/>
	<stop  offset="1" style="stop-color:#E9511B"/>
</linearGradient>
<path style="opacity:0.51;fill:none;stroke:url(#SVGID_00000087393201337585487210000012322082585135423634_);stroke-width:0.3;enable-background:new    ;" d="
	M268.4,98.1c21.9,12.6,57.7,15.4,62.3,39.8c4.4,23.6-31,35.1-44.5,55.1c-12.6,18.6-12.9,45-31.9,57.3c-20.3,13.1-47.3,15.4-70.9,9.1
	c-23.1-6.2-42.5-22.7-54.9-42.8c-11.2-18.1-8.4-40-9.6-61.1c-1.2-20.3-10.7-43.6,2.4-59.4c13-15.9,38.5-11.5,59-15.2
	c15.5-2.8,30.4-6.5,45.9-3.5C241.9,80.6,254.5,90.1,268.4,98.1z"/>
<linearGradient id="SVGID_00000008867054302741469320000014981700625342121631_" gradientUnits="userSpaceOnUse" x1="287.097" y1="219.099" x2="134.5791" y2="78.1781" gradientTransform="matrix(1 0 0 -1 0 302)">
	<stop  offset="0" style="stop-color:#F9B233"/>
	<stop  offset="1" style="stop-color:#E9511B"/>
</linearGradient>
<path style="opacity:0.52;fill:none;stroke:url(#SVGID_00000008867054302741469320000014981700625342121631_);stroke-width:0.3;enable-background:new    ;" d="
	M268.1,97.2c22,12.2,57.8,14.4,62.7,38.6c4.8,23.5-30.2,35.5-43.4,55.6c-12.2,18.7-12,45-30.8,57.6c-20,13.4-46.8,16.2-70.4,10.3
	c-23.1-5.8-42.7-21.9-55.4-41.6c-11.5-17.8-9-39.7-10.7-60.7c-1.6-20.2-11.4-43.2,1.3-59.2c12.7-16,38.1-12.2,58.5-16.1
	c15.3-3,30.2-7,45.6-4.2C241.5,80.2,254.1,89.5,268.1,97.2z"/>
<linearGradient id="SVGID_00000132787481439747285220000004097584177772415395_" gradientUnits="userSpaceOnUse" x1="286.4436" y1="220.2452" x2="137.0746" y2="77.313" gradientTransform="matrix(1 0 0 -1 0 302)">
	<stop  offset="0" style="stop-color:#F9B233"/>
	<stop  offset="1" style="stop-color:#E9511B"/>
</linearGradient>
<path style="opacity:0.53;fill:none;stroke:url(#SVGID_00000132787481439747285220000004097584177772415395_);stroke-width:0.3;enable-background:new    ;" d="
	M267.8,96.4c22.1,11.8,57.8,13.3,63.2,37.3c5.2,23.3-29.4,35.9-42.2,56.1c-11.9,18.8-11.2,45-29.6,57.9
	c-19.7,13.7-46.3,16.9-69.9,11.5c-23.2-5.3-42.9-21.1-55.9-40.5c-11.8-17.6-9.7-39.4-11.7-60.3c-1.9-20.1-12.1-42.9,0.2-59
	c12.4-16.2,37.8-12.8,58-17.1c15.2-3.3,29.9-7.5,45.4-5C240.9,79.8,253.7,88.9,267.8,96.4z"/>
<linearGradient id="SVGID_00000041290639172260811250000004606046179541941141_" gradientUnits="userSpaceOnUse" x1="285.7596" y1="221.3651" x2="139.5616" y2="76.4898" gradientTransform="matrix(1 0 0 -1 0 302)">
	<stop  offset="0" style="stop-color:#F9B233"/>
	<stop  offset="1" style="stop-color:#E9511B"/>
</linearGradient>
<path style="opacity:0.54;fill:none;stroke:url(#SVGID_00000041290639172260811250000004606046179541941141_);stroke-width:0.3;enable-background:new    ;" d="
	M267.5,95.5c22.3,11.4,57.8,12.3,63.6,36.1c5.6,23.1-28.7,36.2-41,56.6c-11.5,19-10.3,45-28.5,58.1c-19.4,14-45.8,17.6-69.4,12.6
	c-23.2-4.9-43.1-20.3-56.4-39.4c-12-17.3-10.4-39.1-12.7-59.8c-2.3-20-12.8-42.5-0.8-58.8c12-16.3,37.4-13.3,57.4-18
	c15.1-3.5,29.7-7.9,45.1-5.7C240.4,79.5,253.3,88.3,267.5,95.5z"/>
<linearGradient id="SVGID_00000070832892788826048450000002981108746505088650_" gradientUnits="userSpaceOnUse" x1="285.0446" y1="222.4598" x2="142.0366" y2="75.7095" gradientTransform="matrix(1 0 0 -1 0 302)">
	<stop  offset="0" style="stop-color:#F9B233"/>
	<stop  offset="1" style="stop-color:#E9511B"/>
</linearGradient>
<path style="opacity:0.55;fill:none;stroke:url(#SVGID_00000070832892788826048450000002981108746505088650_);stroke-width:0.3;enable-background:new    ;" d="
	M267.1,94.6c22.4,10.9,57.8,11.3,63.9,34.9c6,22.9-27.9,36.5-39.9,57.1c-11.1,19.1-9.5,45-27.3,58.4c-19,14.3-45.3,18.3-68.9,13.7
	c-23.1-4.5-43.3-19.5-56.9-38.3c-12.3-17-11-38.7-13.7-59.3c-2.6-19.8-13.5-42.1-1.9-58.5c11.7-16.4,37-13.9,56.9-18.9
	c15-3.7,29.4-8.4,44.8-6.5C239.9,79.2,252.9,87.7,267.1,94.6z"/>
<linearGradient id="SVGID_00000061437246360449702340000009024299439927689632_" gradientUnits="userSpaceOnUse" x1="284.3043" y1="223.5262" x2="144.5033" y2="74.9705" gradientTransform="matrix(1 0 0 -1 0 302)">
	<stop  offset="0" style="stop-color:#F9B233"/>
	<stop  offset="1" style="stop-color:#E9511B"/>
</linearGradient>
<path style="opacity:0.56;fill:none;stroke:url(#SVGID_00000061437246360449702340000009024299439927689632_);stroke-width:0.3;enable-background:new    ;" d="
	M266.7,93.8c22.5,10.5,57.7,10.2,64.3,33.7c6.4,22.7-27.1,36.9-38.7,57.5c-10.7,19.2-8.6,45-26.2,58.6c-18.7,14.5-44.8,19-68.4,14.8
	c-23.1-4.1-43.5-18.7-57.3-37.2c-12.6-16.7-11.7-38.4-14.7-58.9c-3-19.7-14.2-41.7-2.9-58.2c11.3-16.6,36.6-14.5,56.3-19.8
	c14.9-4,29.2-8.9,44.5-7.2C239.3,78.9,252.4,87.1,266.7,93.8z"/>
<linearGradient id="SVGID_00000111190539790886461740000016959750217517007260_" gradientUnits="userSpaceOnUse" x1="283.5327" y1="224.5648" x2="146.9558" y2="74.2718" gradientTransform="matrix(1 0 0 -1 0 302)">
	<stop  offset="0" style="stop-color:#F9B233"/>
	<stop  offset="1" style="stop-color:#E9511B"/>
</linearGradient>
<path style="opacity:0.57;fill:none;stroke:url(#SVGID_00000111190539790886461740000016959750217517007260_);stroke-width:0.3;enable-background:new    ;" d="
	M266.3,93c22.6,10.1,57.7,9.2,64.6,32.4c6.8,22.5-26.4,37.2-37.5,57.9c-10.3,19.3-7.8,45-25,58.8c-18.4,14.8-44.3,19.7-67.8,15.9
	c-23.1-3.7-43.6-17.8-57.8-36c-12.8-16.4-12.3-38-15.7-58.4c-3.3-19.6-14.9-41.3-3.9-57.9c11-16.7,36.2-15,55.7-20.6
	c14.7-4.2,28.9-9.3,44.2-7.9C238.7,78.6,251.9,86.6,266.3,93z"/>
<linearGradient id="SVGID_00000171716624671204673750000002306202795880588705_" gradientUnits="userSpaceOnUse" x1="282.7353" y1="225.5759" x2="149.3963" y2="73.6132" gradientTransform="matrix(1 0 0 -1 0 302)">
	<stop  offset="0" style="stop-color:#F9B233"/>
	<stop  offset="1" style="stop-color:#E9511B"/>
</linearGradient>
<path style="opacity:0.58;fill:none;stroke:url(#SVGID_00000171716624671204673750000002306202795880588705_);stroke-width:0.3;enable-background:new    ;" d="
	M265.8,92.2c22.7,9.7,57.6,8.2,64.9,31.2c7.1,22.3-25.6,37.5-36.3,58.3c-9.9,19.4-7,44.9-23.9,59c-18,15-43.7,20.4-67.3,17
	c-23.1-3.3-43.7-17-58.2-34.9c-13-16.2-12.9-37.7-16.7-57.9c-3.6-19.4-15.6-40.8-4.9-57.6c10.7-16.8,35.7-15.6,55.1-21.5
	c14.6-4.4,28.6-9.8,43.8-8.7C238.1,78.3,251.4,86.1,265.8,92.2z"/>
<linearGradient id="SVGID_00000165208486878823567230000000077788246407278763_" gradientUnits="userSpaceOnUse" x1="281.9115" y1="226.559" x2="151.8245" y2="72.9954" gradientTransform="matrix(1 0 0 -1 0 302)">
	<stop  offset="0" style="stop-color:#F9B233"/>
	<stop  offset="1" style="stop-color:#E9511B"/>
</linearGradient>
<path style="opacity:0.59;fill:none;stroke:url(#SVGID_00000165208486878823567230000000077788246407278763_);stroke-width:0.3;enable-background:new    ;" d="
	M265.3,91.4c22.7,9.2,57.5,7.2,65.2,29.9c7.5,22.1-24.8,37.7-35.1,58.7c-9.5,19.5-6.1,44.8-22.7,59.1c-17.7,15.3-43.2,21-66.7,18.1
	c-23-2.9-43.8-16.2-58.5-33.8c-13.3-15.9-13.5-37.3-17.7-57.3c-4-19.3-16.2-40.4-5.9-57.3c10.3-16.9,35.3-16.1,54.5-22.3
	c14.4-4.7,28.3-10.2,43.5-9.4C237.5,78.1,250.9,85.6,265.3,91.4z"/>
<linearGradient id="SVGID_00000074412859809757943930000014416134776528797629_" gradientUnits="userSpaceOnUse" x1="281.0605" y1="227.5143" x2="154.2375" y2="72.4176" gradientTransform="matrix(1 0 0 -1 0 302)">
	<stop  offset="0" style="stop-color:#F9B233"/>
	<stop  offset="1" style="stop-color:#E9511B"/>
</linearGradient>
<path style="opacity:0.6;fill:none;stroke:url(#SVGID_00000074412859809757943930000014416134776528797629_);stroke-width:0.3;enable-background:new    ;" d="
	M264.8,90.7c22.8,8.8,57.4,6.2,65.5,28.7c7.9,21.9-24.1,38-33.9,59c-9.2,19.5-5.3,44.7-21.6,59.3c-17.3,15.5-42.6,21.7-66.1,19.1
	c-23-2.5-44-15.4-58.9-32.6c-13.5-15.6-14.1-36.9-18.6-56.8c-4.3-19.1-16.9-40-6.9-56.9c10-17,34.9-16.7,53.9-23.2
	c14.3-4.9,28-10.7,43.2-10.1C236.9,77.9,250.3,85.1,264.8,90.7z"/>
<linearGradient id="SVGID_00000021080931105101019670000015331708435965000851_" gradientUnits="userSpaceOnUse" x1="280.1845" y1="228.4394" x2="156.6355" y2="71.8765" gradientTransform="matrix(1 0 0 -1 0 302)">
	<stop  offset="0" style="stop-color:#F9B233"/>
	<stop  offset="1" style="stop-color:#E9511B"/>
</linearGradient>
<path style="opacity:0.61;fill:none;stroke:url(#SVGID_00000021080931105101019670000015331708435965000851_);stroke-width:0.3;enable-background:new    ;" d="
	M264.3,90c22.9,8.4,57.2,5.2,65.7,27.5c8.2,21.6-23.3,38.2-32.7,59.3c-8.8,19.6-4.5,44.6-20.4,59.4c-17,15.7-42.1,22.3-65.4,20.2
	c-22.9-2.1-44-14.6-59.2-31.5c-13.7-15.3-14.7-36.5-19.5-56.2c-4.6-19-17.5-39.5-7.9-56.6c9.6-17.1,34.4-17.2,53.2-24
	c14.2-5.1,27.7-11.1,42.8-10.8C236.2,77.7,249.8,84.6,264.3,90z"/>
<linearGradient id="SVGID_00000002346922374479949430000005605985062057828521_" gradientUnits="userSpaceOnUse" x1="279.2835" y1="229.3351" x2="159.0175" y2="71.3745" gradientTransform="matrix(1 0 0 -1 0 302)">
	<stop  offset="0" style="stop-color:#F9B233"/>
	<stop  offset="1" style="stop-color:#E9511B"/>
</linearGradient>
<path style="opacity:0.62;fill:none;stroke:url(#SVGID_00000002346922374479949430000005605985062057828521_);stroke-width:0.3;enable-background:new    ;" d="
	M263.7,89.2c22.9,8,57.1,4.2,65.9,26.2c8.6,21.4-22.5,38.5-31.5,59.6c-8.4,19.7-3.7,44.5-19.3,59.5c-16.6,16-41.5,22.9-64.8,21.2
	c-22.9-1.7-44.1-13.8-59.5-30.3c-13.9-15-15.3-36.1-20.5-55.6c-4.9-18.8-18.2-39-8.9-56.2c9.3-17.2,34-17.7,52.6-24.8
	c14-5.3,27.4-11.5,42.4-11.4C235.6,77.5,249.2,84.2,263.7,89.2z"/>
<linearGradient id="SVGID_00000008851936257665915920000000450515444632172199_" gradientUnits="userSpaceOnUse" x1="278.3594" y1="230.2014" x2="161.3854" y2="70.9092" gradientTransform="matrix(1 0 0 -1 0 302)">
	<stop  offset="0" style="stop-color:#F9B233"/>
	<stop  offset="1" style="stop-color:#E9511B"/>
</linearGradient>
<path style="opacity:0.63;fill:none;stroke:url(#SVGID_00000008851936257665915920000000450515444632172199_);stroke-width:0.3;enable-background:new    ;" d="
	M263.1,88.6c23,7.5,56.9,3.2,66.1,25c8.9,21.2-21.7,38.7-30.3,59.9c-8,19.7-2.9,44.4-18.1,59.5c-16.3,16.2-40.9,23.5-64.2,22.2
	c-22.8-1.3-44.2-13-59.8-29.2c-14.1-14.7-15.9-35.7-21.4-55.1c-5.3-18.7-18.8-38.6-9.9-55.8c8.9-17.3,33.5-18.2,51.9-25.6
	c13.8-5.6,27-11.9,42-12.1C234.9,77.3,248.5,83.8,263.1,88.6z"/>
<linearGradient id="SVGID_00000066484775237001834490000005478759172832034717_" gradientUnits="userSpaceOnUse" x1="277.4092" y1="231.0376" x2="163.7332" y2="70.4817" gradientTransform="matrix(1 0 0 -1 0 302)">
	<stop  offset="0" style="stop-color:#F9B233"/>
	<stop  offset="1" style="stop-color:#E9511B"/>
</linearGradient>
<path style="opacity:0.64;fill:none;stroke:url(#SVGID_00000066484775237001834490000005478759172832034717_);stroke-width:0.3;enable-background:new    ;" d="
	M262.5,87.9c23,7.1,56.7,2.2,66.2,23.8c9.2,20.9-20.9,38.9-29.1,60.2c-7.6,19.8-2.1,44.2-17,59.6c-15.9,16.4-40.3,24.1-63.5,23.2
	c-22.7-0.9-44.2-12.2-60.1-28.1c-14.3-14.4-16.5-35.2-22.2-54.5c-5.6-18.5-19.4-38.1-10.8-55.4c8.6-17.4,33-18.7,51.2-26.3
	c13.7-5.8,26.7-12.3,41.6-12.8C234.2,77.2,247.9,83.4,262.5,87.9z"/>
<linearGradient id="SVGID_00000098204346665580154620000001769684476049114537_" gradientUnits="userSpaceOnUse" x1="276.4373" y1="231.8435" x2="166.0633" y2="70.0898" gradientTransform="matrix(1 0 0 -1 0 302)">
	<stop  offset="0" style="stop-color:#F9B233"/>
	<stop  offset="1" style="stop-color:#E9511B"/>
</linearGradient>
<path style="opacity:0.65;fill:none;stroke:url(#SVGID_00000098204346665580154620000001769684476049114537_);stroke-width:0.3;enable-background:new    ;" d="
	M261.9,87.2c23,6.7,56.5,1.2,66.4,22.6c9.6,20.7-20.1,39.1-27.9,60.4c-7.2,19.8-1.3,44.1-15.8,59.6c-15.6,16.6-39.7,24.7-62.8,24.2
	c-22.6-0.5-44.2-11.4-60.3-26.9c-14.5-14.1-17-34.8-23.1-53.8c-5.9-18.3-20-37.6-11.7-55c8.2-17.4,32.6-19.2,50.5-27.1
	c13.5-6,26.4-12.7,41.2-13.4C233.5,77,247.3,83,261.9,87.2z"/>
<linearGradient id="SVGID_00000005965590591116218950000003589493065167983032_" gradientUnits="userSpaceOnUse" x1="275.4411" y1="232.6185" x2="168.3751" y2="69.7323" gradientTransform="matrix(1 0 0 -1 0 302)">
	<stop  offset="0" style="stop-color:#F9B233"/>
	<stop  offset="1" style="stop-color:#E9511B"/>
</linearGradient>
<path style="opacity:0.66;fill:none;stroke:url(#SVGID_00000005965590591116218950000003589493065167983032_);stroke-width:0.3;enable-background:new    ;" d="
	M261.2,86.6c23,6.3,56.3,0.3,66.5,21.3c9.9,20.4-19.4,39.3-26.7,60.6c-6.8,19.9-0.5,43.9-14.7,59.6c-15.2,16.8-39.1,25.3-62.1,25.1
	c-22.5-0.1-44.2-10.6-60.5-25.8c-14.7-13.8-17.6-34.4-24-53.2c-6.2-18.1-20.5-37.1-12.7-54.5c7.9-17.5,32.1-19.6,49.8-27.8
	c13.4-6.2,26-13.1,40.8-14.1C232.8,76.9,246.6,82.6,261.2,86.6z"/>
<linearGradient id="SVGID_00000121973979735163380200000013084098545415251390_" gradientUnits="userSpaceOnUse" x1="274.4257" y1="233.3633" x2="170.6687" y2="69.4108" gradientTransform="matrix(1 0 0 -1 0 302)">
	<stop  offset="0" style="stop-color:#F9B233"/>
	<stop  offset="1" style="stop-color:#E9511B"/>
</linearGradient>
<path style="opacity:0.67;fill:none;stroke:url(#SVGID_00000121973979735163380200000013084098545415251390_);stroke-width:0.3;enable-background:new    ;" d="
	M260.5,86c23,5.9,56-0.7,66.6,20.1c10.2,20.2-18.6,39.4-25.5,60.8c-6.5,19.9,0.3,43.7-13.6,59.6c-14.8,17-38.5,25.8-61.4,26.1
	c-22.5,0.3-44.2-9.8-60.7-24.6c-14.9-13.5-18.1-33.9-24.8-52.6c-6.5-18-21.1-36.6-13.6-54.1c7.5-17.6,31.6-20.1,49.1-28.6
	c13.2-6.4,25.7-13.5,40.4-14.7C232.1,76.9,245.9,82.3,260.5,86z"/>
<linearGradient id="SVGID_00000050630064348304821270000013457900525785608585_" gradientUnits="userSpaceOnUse" x1="273.3875" y1="234.0764" x2="172.9415" y2="69.1234" gradientTransform="matrix(1 0 0 -1 0 302)">
	<stop  offset="0" style="stop-color:#F9B233"/>
	<stop  offset="1" style="stop-color:#E9511B"/>
</linearGradient>
<path style="opacity:0.68;fill:none;stroke:url(#SVGID_00000050630064348304821270000013457900525785608585_);stroke-width:0.3;enable-background:new    ;" d="
	M259.8,85.4c23,5.4,55.8-1.6,66.6,18.9c10.5,19.9-17.8,39.6-24.3,61c-6.1,19.9,1.1,43.5-12.5,59.6c-14.5,17.1-37.8,26.4-60.6,27
	c-22.3,0.6-44.2-9-60.9-23.5c-15.1-13.1-18.6-33.5-25.6-51.9c-6.8-17.8-21.7-36-14.5-53.6c7.2-17.6,31.1-20.5,48.4-29.3
	c13-6.6,25.3-13.9,39.9-15.3C231.3,76.8,245.2,82,259.8,85.4z"/>
<linearGradient id="SVGID_00000090269048551375003840000000040245849730464175_" gradientUnits="userSpaceOnUse" x1="272.3289" y1="234.7572" x2="175.1939" y2="68.8684" gradientTransform="matrix(1 0 0 -1 0 302)">
	<stop  offset="0" style="stop-color:#F9B233"/>
	<stop  offset="1" style="stop-color:#E9511B"/>
</linearGradient>
<path style="opacity:0.69;fill:none;stroke:url(#SVGID_00000090269048551375003840000000040245849730464175_);stroke-width:0.3;enable-background:new    ;" d="
	M259.1,84.9c23,5,55.5-2.6,66.7,17.7c10.8,19.6-17,39.7-23.1,61.1c-5.7,19.9,1.8,43.3-11.4,59.5c-14.1,17.3-37.2,26.9-59.9,27.9
	c-22.2,1-44.2-8.2-61-22.4c-15.2-12.8-19.1-33-26.5-51.3c-7-17.6-22.2-35.5-15.4-53.1c6.9-17.7,30.6-21,47.6-30
	c12.8-6.8,25-14.2,39.5-15.9C230.6,76.8,244.4,81.7,259.1,84.9z"/>
<linearGradient id="SVGID_00000052064295902965882490000002079960285184100283_" gradientUnits="userSpaceOnUse" x1="271.2516" y1="235.4074" x2="177.4266" y2="68.6463" gradientTransform="matrix(1 0 0 -1 0 302)">
	<stop  offset="0" style="stop-color:#F9B233"/>
	<stop  offset="1" style="stop-color:#E9511B"/>
</linearGradient>
<path style="opacity:0.7;fill:none;stroke:url(#SVGID_00000052064295902965882490000002079960285184100283_);stroke-width:0.3;enable-background:new    ;" d="
	M258.3,84.3c23,4.6,55.2-3.5,66.7,16.5c11.2,19.4-16.2,39.8-21.9,61.2c-5.3,19.9,2.6,43.1-10.2,59.5c-13.7,17.5-36.5,27.4-59.1,28.8
	c-22.1,1.4-44.1-7.4-61.2-21.2c-15.4-12.5-19.6-32.5-27.2-50.6c-7.3-17.4-22.8-35-16.3-52.6c6.5-17.7,30.1-21.4,46.9-30.6
	c12.7-6.9,24.6-14.6,39-16.5C229.8,76.8,243.7,81.4,258.3,84.3z"/>
<linearGradient id="SVGID_00000017489604637973733480000001742128188188211874_" gradientUnits="userSpaceOnUse" x1="270.1531" y1="236.0249" x2="179.6361" y2="68.4558" gradientTransform="matrix(1 0 0 -1 0 302)">
	<stop  offset="0" style="stop-color:#F9B233"/>
	<stop  offset="1" style="stop-color:#E9511B"/>
</linearGradient>
<path style="opacity:0.71;fill:none;stroke:url(#SVGID_00000017489604637973733480000001742128188188211874_);stroke-width:0.3;enable-background:new    ;" d="
	M257.6,83.8c23,4.2,54.9-4.4,66.7,15.3c11.4,19.1-15.4,39.9-20.8,61.3c-4.9,19.9,3.4,42.9-9.1,59.4c-13.3,17.6-35.9,27.9-58.3,29.7
	c-22,1.8-44-6.6-61.3-20.1c-15.6-12.2-20.1-32.1-28-49.9c-7.6-17.2-23.3-34.4-17.1-52.1c6.2-17.7,29.6-21.8,46.1-31.3
	c12.5-7.1,24.2-15,38.6-17.1C229,76.8,242.9,81.2,257.6,83.8z"/>
<linearGradient id="SVGID_00000028292022279879333250000013045959773910365884_" gradientUnits="userSpaceOnUse" x1="269.0365" y1="236.6101" x2="181.8235" y2="68.2958" gradientTransform="matrix(1 0 0 -1 0 302)">
	<stop  offset="0" style="stop-color:#F9B233"/>
	<stop  offset="1" style="stop-color:#E9511B"/>
</linearGradient>
<path style="opacity:0.72;fill:none;stroke:url(#SVGID_00000028292022279879333250000013045959773910365884_);stroke-width:0.3;enable-background:new    ;" d="
	M256.8,83.4c23,3.8,54.6-5.3,66.7,14.1c11.7,18.8-14.7,40-19.6,61.4c-4.6,19.9,4.1,42.6-8,59.3c-13,17.8-35.2,28.4-57.5,30.5
	c-21.9,2.1-44-5.8-61.3-19c-15.7-11.9-20.6-31.6-28.8-49.2c-7.9-17-23.8-33.9-18-51.6c5.8-17.7,29-22.2,45.4-31.9
	c12.3-7.3,23.9-15.3,38.1-17.7C228.2,76.8,242.2,80.9,256.8,83.4z"/>
<linearGradient id="SVGID_00000020392912345377050340000012136767352859527086_" gradientUnits="userSpaceOnUse" x1="267.9008" y1="237.1633" x2="183.9888" y2="68.1674" gradientTransform="matrix(1 0 0 -1 0 302)">
	<stop  offset="0" style="stop-color:#F9B233"/>
	<stop  offset="1" style="stop-color:#E9511B"/>
</linearGradient>
<path style="opacity:0.73;fill:none;stroke:url(#SVGID_00000020392912345377050340000012136767352859527086_);stroke-width:0.3;enable-background:new    ;" d="
	M256,82.9c22.9,3.4,54.2-6.2,66.6,12.9c12,18.5-13.9,40-18.4,61.5c-4.2,19.9,4.8,42.4-7,59.1c-12.6,17.9-34.6,28.8-56.7,31.4
	c-21.7,2.5-43.9-5.1-61.4-17.9c-15.8-11.6-21.1-31.1-29.5-48.5c-8.1-16.8-24.3-33.3-18.8-51.1c5.5-17.8,28.5-22.6,44.6-32.6
	c12.1-7.5,23.5-15.6,37.6-18.2C227.4,76.9,241.4,80.8,256,82.9z"/>
<linearGradient id="SVGID_00000054967384015295176730000018126192349839399095_" gradientUnits="userSpaceOnUse" x1="266.7509" y1="237.6837" x2="186.1329" y2="68.0679" gradientTransform="matrix(1 0 0 -1 0 302)">
	<stop  offset="0" style="stop-color:#F9B233"/>
	<stop  offset="1" style="stop-color:#E9511B"/>
</linearGradient>
<path style="opacity:0.74;fill:none;stroke:url(#SVGID_00000054967384015295176730000018126192349839399095_);stroke-width:0.3;enable-background:new    ;" d="
	M255.1,82.5c22.9,3,53.9-7.1,66.5,11.7c12.3,18.2-13.1,40.1-17.2,61.5c-3.8,19.9,5.6,42.1-5.9,59c-12.2,18-33.9,29.3-55.9,32.2
	c-21.6,2.8-43.8-4.3-61.4-16.7c-16-11.2-21.5-30.6-30.3-47.8c-8.4-16.5-24.8-32.8-19.6-50.5c5.1-17.8,28-23,43.8-33.2
	c11.9-7.7,23.1-16,37.1-18.8C226.6,77,240.6,80.6,255.1,82.5z"/>
<linearGradient id="SVGID_00000150084893166423694140000013821172099814017713_" gradientUnits="userSpaceOnUse" x1="265.5802" y1="238.1709" x2="188.2502" y2="67.9975" gradientTransform="matrix(1 0 0 -1 0 302)">
	<stop  offset="0" style="stop-color:#F9B233"/>
	<stop  offset="1" style="stop-color:#E9511B"/>
</linearGradient>
<path style="opacity:0.75;fill:none;stroke:url(#SVGID_00000150084893166423694140000013821172099814017713_);stroke-width:0.3;enable-background:new    ;" d="
	M254.3,82.1c22.8,2.6,53.5-8,66.4,10.5c12.6,18-12.3,40.1-16,61.5c-3.4,19.9,6.3,41.8-4.8,58.8c-11.8,18.2-33.2,29.7-55.1,33
	c-21.4,3.2-43.6-3.5-61.5-15.6c-16.1-10.9-22-30.1-31-47c-8.7-16.3-25.2-32.2-20.4-50c4.8-17.8,27.5-23.4,43-33.8
	c11.7-7.8,22.7-16.3,36.6-19.3C225.8,77.1,239.7,80.4,254.3,82.1z"/>
<linearGradient id="SVGID_00000145019556184606818140000003277101780571293841_" gradientUnits="userSpaceOnUse" x1="264.3952" y1="238.6252" x2="190.3452" y2="67.9552" gradientTransform="matrix(1 0 0 -1 0 302)">
	<stop  offset="0" style="stop-color:#F9B233"/>
	<stop  offset="1" style="stop-color:#E9511B"/>
</linearGradient>
<path style="opacity:0.76;fill:none;stroke:url(#SVGID_00000145019556184606818140000003277101780571293841_);stroke-width:0.3;enable-background:new    ;" d="
	M253.4,81.7c22.8,2.2,53.1-8.9,66.3,9.3c12.8,17.7-11.6,40.2-14.9,61.5c-3.1,19.8,7,41.5-3.7,58.6c-11.5,18.3-32.5,30.2-54.3,33.8
	c-21.3,3.5-43.5-2.8-61.5-14.5c-16.2-10.6-22.4-29.6-31.7-46.3c-8.9-16.1-25.7-31.6-21.2-49.4c4.5-17.8,26.9-23.7,42.2-34.3
	c11.5-8,22.3-16.6,36.1-19.9C224.9,77.2,238.9,80.3,253.4,81.7z"/>
<linearGradient id="SVGID_00000017505561381560560280000005080790011789929627_" gradientUnits="userSpaceOnUse" x1="263.193" y1="239.0457" x2="192.4149" y2="67.9404" gradientTransform="matrix(1 0 0 -1 0 302)">
	<stop  offset="0" style="stop-color:#F9B233"/>
	<stop  offset="1" style="stop-color:#E9511B"/>
</linearGradient>
<path style="opacity:0.77;fill:none;stroke:url(#SVGID_00000017505561381560560280000005080790011789929627_);stroke-width:0.3;enable-background:new    ;" d="
	M252.5,81.4c22.7,1.8,52.7-9.7,66.2,8.2c13.1,17.4-10.8,40.2-13.7,61.5c-2.7,19.8,7.7,41.2-2.7,58.4c-11.1,18.4-31.9,30.6-53.4,34.6
	c-21.1,3.9-43.4-2-61.4-13.4c-16.3-10.3-22.8-29.1-32.3-45.6c-9.2-15.9-26.1-31.1-22-48.8c4.1-17.8,26.4-24.1,41.4-34.9
	c11.3-8.2,21.9-16.9,35.6-20.4C224.1,77.4,238.1,80.2,252.5,81.4z"/>
<linearGradient id="SVGID_00000025414306418577602140000012175562270743068800_" gradientUnits="userSpaceOnUse" x1="261.9763" y1="239.4322" x2="194.4603" y2="67.9512" gradientTransform="matrix(1 0 0 -1 0 302)">
	<stop  offset="0" style="stop-color:#F9B233"/>
	<stop  offset="1" style="stop-color:#E9511B"/>
</linearGradient>
<path style="opacity:0.78;fill:none;stroke:url(#SVGID_00000025414306418577602140000012175562270743068800_);stroke-width:0.3;enable-background:new    ;" d="
	M251.6,81.1c22.6,1.4,52.3-10.6,66,7c13.3,17.1-10,40.2-12.6,61.5c-2.3,19.8,8.4,40.9-1.6,58.2c-10.7,18.5-31.2,31-52.5,35.3
	c-21,4.2-43.2-1.3-61.4-12.3c-16.4-9.9-23.3-28.5-33-44.8c-9.4-15.7-26.6-30.5-22.8-48.2c3.8-17.8,25.8-24.4,40.6-35.4
	c11.1-8.3,21.5-17.2,35-20.9C223.3,77.6,237.2,80.2,251.6,81.1z"/>
<linearGradient id="SVGID_00000181765296011981411840000005565479893904908933_" gradientUnits="userSpaceOnUse" x1="260.7467" y1="239.7863" x2="196.4817" y2="67.9888" gradientTransform="matrix(1 0 0 -1 0 302)">
	<stop  offset="0" style="stop-color:#F9B233"/>
	<stop  offset="1" style="stop-color:#E9511B"/>
</linearGradient>
<path style="opacity:0.79;fill:none;stroke:url(#SVGID_00000181765296011981411840000005565479893904908933_);stroke-width:0.3;enable-background:new    ;" d="
	M250.7,80.8c22.6,1,51.9-11.4,65.8,5.9c13.6,16.8-9.3,40.2-11.4,61.4c-2,19.7,9.1,40.6-0.6,58c-10.3,18.6-30.5,31.4-51.7,36
	c-20.8,4.6-43-0.5-61.3-11.2c-16.5-9.6-23.6-28-33.7-44c-9.6-15.4-27-29.9-23.5-47.6c3.5-17.8,25.3-24.7,39.8-36
	c10.9-8.5,21.1-17.5,34.5-21.4C222.4,77.8,236.3,80.1,250.7,80.8z"/>
<linearGradient id="SVGID_00000021806767582392130700000017561293361903763586_" gradientUnits="userSpaceOnUse" x1="259.5011" y1="240.1058" x2="198.4751" y2="68.0514" gradientTransform="matrix(1 0 0 -1 0 302)">
	<stop  offset="0" style="stop-color:#F9B233"/>
	<stop  offset="1" style="stop-color:#E9511B"/>
</linearGradient>
<path style="opacity:0.8;fill:none;stroke:url(#SVGID_00000021806767582392130700000017561293361903763586_);stroke-width:0.3;enable-background:new    ;" d="
	M249.7,80.5c22.5,0.6,51.4-12.3,65.6,4.7c13.8,16.4-8.5,40.1-10.3,61.3c-1.6,19.7,9.8,40.2,0.5,57.7c-10,18.7-29.8,31.8-50.8,36.8
	c-20.6,4.9-42.8,0.2-61.2-10.1c-16.6-9.3-24-27.5-34.3-43.3c-9.9-15.2-27.4-29.3-24.3-47c3.1-17.7,24.7-25.1,39-36.5
	c10.7-8.6,20.7-17.8,33.9-21.9C221.5,78,235.4,80.1,249.7,80.5z"/>
<linearGradient id="SVGID_00000028285190357305373970000016754818155488329911_" gradientUnits="userSpaceOnUse" x1="258.2428" y1="240.3909" x2="200.4438" y2="68.1378" gradientTransform="matrix(1 0 0 -1 0 302)">
	<stop  offset="0" style="stop-color:#F9B233"/>
	<stop  offset="1" style="stop-color:#E9511B"/>
</linearGradient>
<path style="opacity:0.81;fill:none;stroke:url(#SVGID_00000028285190357305373970000016754818155488329911_);stroke-width:0.3;enable-background:new    ;" d="
	M248.8,80.3c22.4,0.2,50.9-13.1,65.4,3.6c14,16.1-7.8,40.1-9.1,61.2c-1.3,19.6,10.5,39.9,1.5,57.4c-9.6,18.8-29.1,32.1-49.9,37.4
	c-20.4,5.2-42.6,0.9-61.1-9c-16.7-9-24.4-26.9-34.9-42.5c-10.1-15-27.8-28.7-25-46.4c2.8-17.7,24.1-25.4,38.1-37
	c10.5-8.7,20.3-18,33.4-22.4C220.7,78.3,234.5,80.1,248.8,80.3z"/>
<linearGradient id="SVGID_00000046312318600045982060000002409135242399561909_" gradientUnits="userSpaceOnUse" x1="256.9735" y1="240.642" x2="202.3875" y2="68.2479" gradientTransform="matrix(1 0 0 -1 0 302)">
	<stop  offset="0" style="stop-color:#F9B233"/>
	<stop  offset="1" style="stop-color:#E9511B"/>
</linearGradient>
<path style="opacity:0.82;fill:none;stroke:url(#SVGID_00000046312318600045982060000002409135242399561909_);stroke-width:0.3;enable-background:new    ;" d="
	M247.8,80.1c22.3-0.1,50.5-13.9,65.2,2.4c14.3,15.8-7,40-8,61.1c-0.9,19.5,11.1,39.5,2.5,57.1c-9.2,18.8-28.4,32.5-49,38.1
	c-20.2,5.6-42.4,1.6-61-7.9c-16.8-8.6-24.8-26.4-35.5-41.7c-10.3-14.7-28.2-28.1-25.7-45.7c2.5-17.7,23.6-25.7,37.3-37.5
	c10.3-8.9,19.9-18.3,32.8-22.8C219.8,78.5,233.6,80.2,247.8,80.1z"/>
<linearGradient id="SVGID_00000011741110329626271290000013651342841584108451_" gradientUnits="userSpaceOnUse" x1="255.6902" y1="240.8584" x2="204.3022" y2="68.3801" gradientTransform="matrix(1 0 0 -1 0 302)">
	<stop  offset="0" style="stop-color:#F9B233"/>
	<stop  offset="1" style="stop-color:#E9511B"/>
</linearGradient>
<path style="opacity:0.83;fill:none;stroke:url(#SVGID_00000011741110329626271290000013651342841584108451_);stroke-width:0.3;enable-background:new    ;" d="
	M246.8,79.9c22.2-0.5,50-14.7,64.9,1.3c14.5,15.5-6.3,40-6.9,60.9c-0.6,19.4,11.8,39.1,3.5,56.8c-8.8,18.9-27.6,32.8-48.1,38.8
	c-20,5.9-42.2,2.3-60.8-6.9c-16.9-8.3-25.1-25.9-36.1-40.9c-10.5-14.5-28.5-27.5-26.4-45.1c2.1-17.6,23-25.9,36.5-37.9
	c10.1-9,19.4-18.5,32.3-23.3C218.9,78.9,232.7,80.2,246.8,79.9z"/>
<linearGradient id="SVGID_00000038399638409989597940000006648983640284823936_" gradientUnits="userSpaceOnUse" x1="254.3952" y1="241.0409" x2="206.1913" y2="68.5349" gradientTransform="matrix(1 0 0 -1 0 302)">
	<stop  offset="0" style="stop-color:#F9B233"/>
	<stop  offset="1" style="stop-color:#E9511B"/>
</linearGradient>
<path style="opacity:0.84;fill:none;stroke:url(#SVGID_00000038399638409989597940000006648983640284823936_);stroke-width:0.3;enable-background:new    ;" d="
	M245.8,79.8c22.1-0.9,49.5-15.4,64.6,0.2c14.7,15.2-5.5,39.9-5.7,60.7c-0.2,19.4,12.4,38.7,4.5,56.5c-8.4,19-26.9,33.1-47.2,39.4
	c-19.8,6.2-41.9,3-60.7-5.8c-16.9-8-25.5-25.3-36.6-40.1c-10.7-14.2-28.9-26.9-27.1-44.4c1.8-17.6,22.4-26.2,35.6-38.4
	c9.9-9.1,19-18.8,31.7-23.7C218,79.2,231.8,80.3,245.8,79.8z"/>
<linearGradient id="SVGID_00000090982354271332520310000008426683310551838886_" gradientUnits="userSpaceOnUse" x1="253.0898" y1="241.1881" x2="208.0538" y2="68.7111" gradientTransform="matrix(1 0 0 -1 0 302)">
	<stop  offset="0" style="stop-color:#F9B233"/>
	<stop  offset="1" style="stop-color:#E9511B"/>
</linearGradient>
<path style="opacity:0.85;fill:none;stroke:url(#SVGID_00000090982354271332520310000008426683310551838886_);stroke-width:0.3;enable-background:new    ;" d="
	M244.8,79.7c21.9-1.3,49-16.2,64.3-0.9c14.9,14.9-4.8,39.8-4.6,60.5c0.1,19.3,13,38.4,5.5,56.2c-8.1,19-26.2,33.4-46.2,40
	c-19.6,6.5-41.7,3.7-60.5-4.7c-17-7.7-25.8-24.8-37.2-39.3c-10.9-14-29.2-26.2-27.7-43.7c1.5-17.5,21.9-26.5,34.8-38.8
	c9.7-9.3,18.6-19,31.1-24.1C217.1,79.6,230.9,80.5,244.8,79.7z"/>
<linearGradient id="SVGID_00000159471536884236737930000010690142769523864969_" gradientUnits="userSpaceOnUse" x1="251.7752" y1="241.301" x2="209.8882" y2="68.9073" gradientTransform="matrix(1 0 0 -1 0 302)">
	<stop  offset="0" style="stop-color:#F9B233"/>
	<stop  offset="1" style="stop-color:#E9511B"/>
</linearGradient>
<path style="opacity:0.86;fill:none;stroke:url(#SVGID_00000159471536884236737930000010690142769523864969_);stroke-width:0.3;enable-background:new    ;" d="
	M243.8,79.6c21.8-1.6,48.5-17,64-2c15.1,14.6-4.1,39.7-3.5,60.3c0.5,19.2,13.7,37.9,6.5,55.8c-7.7,19.1-25.5,33.7-45.3,40.6
	c-19.4,6.8-41.4,4.4-60.3-3.7c-17.1-7.3-26.1-24.2-37.7-38.5c-11.1-13.7-29.5-25.6-28.4-43.1c1.2-17.5,21.3-26.7,33.9-39.2
	c9.5-9.4,18.2-19.2,30.6-24.6C216.2,79.9,229.9,80.6,243.8,79.6z"/>
<linearGradient id="SVGID_00000015314027707307428600000005138289905975833020_" gradientUnits="userSpaceOnUse" x1="250.4515" y1="241.3776" x2="211.6975" y2="69.1229" gradientTransform="matrix(1 0 0 -1 0 302)">
	<stop  offset="0" style="stop-color:#F9B233"/>
	<stop  offset="1" style="stop-color:#E9511B"/>
</linearGradient>
<path style="opacity:0.87;fill:none;stroke:url(#SVGID_00000015314027707307428600000005138289905975833020_);stroke-width:0.3;enable-background:new    ;" d="
	M242.7,79.5c21.7-2,47.9-17.7,63.6-3c15.3,14.2-3.3,39.6-2.4,60.1c0.8,19.1,14.3,37.5,7.4,55.4c-7.3,19.1-24.8,34-44.4,41.2
	c-19.2,7.1-41.1,5.1-60.1-2.7c-17.1-7-26.4-23.7-38.2-37.7c-11.3-13.5-29.9-25-29-42.4c0.9-17.4,20.7-26.9,33-39.6
	c9.3-9.5,17.7-19.5,30-25C215.4,80.4,229,80.8,242.7,79.5z"/>
<linearGradient id="SVGID_00000093872235600134041740000005230387895307107259_" gradientUnits="userSpaceOnUse" x1="249.1178" y1="241.42" x2="213.4768" y2="69.3566" gradientTransform="matrix(1 0 0 -1 0 302)">
	<stop  offset="0" style="stop-color:#F9B233"/>
	<stop  offset="1" style="stop-color:#E9511B"/>
</linearGradient>
<path style="opacity:0.88;fill:none;stroke:url(#SVGID_00000093872235600134041740000005230387895307107259_);stroke-width:0.3;enable-background:new    ;" d="
	M241.7,79.5c21.5-2.3,47.4-18.4,63.3-4.1c15.4,13.9-2.6,39.4-1.4,59.9c1.2,19,14.9,37.1,8.4,55c-6.9,19.1-24,34.2-43.4,41.7
	c-19,7.4-40.8,5.8-59.8-1.6c-17.2-6.7-26.7-23.1-38.7-36.8c-11.5-13.2-30.2-24.4-29.6-41.7c0.5-17.3,20.1-27.2,32.2-39.9
	c9.1-9.6,17.3-19.7,29.4-25.4C214.4,80.8,228,81,241.7,79.5z"/>
<linearGradient id="SVGID_00000030454718102196373540000010234742536840602558_" gradientUnits="userSpaceOnUse" x1="247.7749" y1="241.4266" x2="215.2289" y2="69.6092" gradientTransform="matrix(1 0 0 -1 0 302)">
	<stop  offset="0" style="stop-color:#F9B233"/>
	<stop  offset="1" style="stop-color:#E9511B"/>
</linearGradient>
<path style="opacity:0.89;fill:none;stroke:url(#SVGID_00000030454718102196373540000010234742536840602558_);stroke-width:0.3;enable-background:new    ;" d="
	M240.6,79.5c21.4-2.7,46.8-19.1,62.9-5.1c15.6,13.6-1.9,39.3-0.3,59.6c1.5,18.9,15.5,36.7,9.3,54.6c-6.6,19.2-23.3,34.5-42.5,42.3
	c-18.8,7.7-40.5,6.4-59.6-0.6c-17.2-6.4-27-22.5-39.1-36c-11.7-13-30.5-23.7-30.2-41c0.2-17.3,19.5-27.4,31.3-40.3
	c8.9-9.7,16.9-19.9,28.8-25.7C213.5,81.3,227,81.2,240.6,79.5z"/>
<linearGradient id="SVGID_00000062176457720198270240000006247966760356355767_" gradientUnits="userSpaceOnUse" x1="246.4243" y1="241.3988" x2="216.9523" y2="69.88" gradientTransform="matrix(1 0 0 -1 0 302)">
	<stop  offset="0" style="stop-color:#F9B233"/>
	<stop  offset="1" style="stop-color:#E9511B"/>
</linearGradient>
<path style="opacity:0.9;fill:none;stroke:url(#SVGID_00000062176457720198270240000006247966760356355767_);stroke-width:0.3;enable-background:new    ;" d="
	M239.6,79.6c21.2-3.1,46.2-19.8,62.5-6.2c15.8,13.2-1.2,39.1,0.8,59.3c1.8,18.8,16,36.2,10.2,54.2c-6.2,19.2-22.6,34.7-41.5,42.8
	c-18.5,7.9-40.2,7.1-59.3,0.4c-17.2-6.1-27.3-22-39.6-35.2c-11.9-12.7-30.7-23.1-30.8-40.3c-0.1-17.2,19-27.6,30.4-40.6
	c8.6-9.8,16.4-20.1,28.2-26.1C212.6,81.8,226.1,81.5,239.6,79.6z"/>
<linearGradient id="SVGID_00000016040929732705581250000002373465182306016670_" gradientUnits="userSpaceOnUse" x1="245.0676" y1="241.3342" x2="218.6486" y2="70.1656" gradientTransform="matrix(1 0 0 -1 0 302)">
	<stop  offset="0" style="stop-color:#F9B233"/>
	<stop  offset="1" style="stop-color:#E9511B"/>
</linearGradient>
<path style="opacity:0.91;fill:none;stroke:url(#SVGID_00000016040929732705581250000002373465182306016670_);stroke-width:0.3;enable-background:new    ;" d="
	M238.5,79.6c21.1-3.4,45.7-20.5,62.1-7.2c15.9,12.9-0.5,39,1.8,59c2.1,18.6,16.6,35.8,11.2,53.8c-5.8,19.2-21.9,34.9-40.5,43.3
	c-18.3,8.2-39.9,7.8-59,1.4c-17.2-5.7-27.5-21.4-40-34.3c-12-12.4-31-22.5-31.4-39.6c-0.4-17.1,18.4-27.8,29.6-41
	c8.4-9.9,16-20.2,27.6-26.4C211.7,82.3,225.1,81.8,238.5,79.6z"/>
<linearGradient id="SVGID_00000008837447293113560630000001754703335118987904_" gradientUnits="userSpaceOnUse" x1="243.7029" y1="241.2349" x2="220.3149" y2="70.4676" gradientTransform="matrix(1 0 0 -1 0 302)">
	<stop  offset="0" style="stop-color:#F9B233"/>
	<stop  offset="1" style="stop-color:#E9511B"/>
</linearGradient>
<path style="opacity:0.92;fill:none;stroke:url(#SVGID_00000008837447293113560630000001754703335118987904_);stroke-width:0.3;enable-background:new    ;" d="
	M237.4,79.7c20.9-3.7,45.1-21.2,61.7-8.2c16.1,12.6,0.2,38.8,2.9,58.7c2.5,18.5,17.2,35.3,12.1,53.3c-5.4,19.2-21.1,35.1-39.6,43.8
	c-18.1,8.5-39.6,8.4-58.7,2.4c-17.3-5.4-27.8-20.8-40.4-33.5c-12.2-12.2-31.2-21.9-31.9-38.8c-0.7-17,17.8-27.9,28.7-41.3
	c8.2-10,15.6-20.4,27-26.8C210.8,82.8,224.1,82.1,237.4,79.7z"/>
<linearGradient id="SVGID_00000177464722741110752540000008092609007882426281_" gradientUnits="userSpaceOnUse" x1="242.3321" y1="241.0993" x2="221.9531" y2="70.7848" gradientTransform="matrix(1 0 0 -1 0 302)">
	<stop  offset="0" style="stop-color:#F9B233"/>
	<stop  offset="1" style="stop-color:#E9511B"/>
</linearGradient>
<path style="opacity:0.93;fill:none;stroke:url(#SVGID_00000177464722741110752540000008092609007882426281_);stroke-width:0.3;enable-background:new    ;" d="
	M236.3,79.9c20.7-4.1,44.5-21.9,61.2-9.2c16.2,12.2,0.9,38.6,3.9,58.4c2.8,18.4,17.7,34.9,13,52.9c-5.1,19.2-20.4,35.3-38.6,44.2
	c-17.8,8.8-39.2,9-58.3,3.4c-17.3-5.1-28-20.3-40.8-32.6c-12.3-11.9-31.5-21.2-32.5-38.1c-1-16.9,17.2-28.1,27.8-41.5
	c8-10.1,15.1-20.6,26.4-27.1C209.9,83.4,223.1,82.5,236.3,79.9z"/>
<linearGradient id="SVGID_00000096025517745684451780000014954235299024271276_" gradientUnits="userSpaceOnUse" x1="240.9575" y1="240.9287" x2="223.5645" y2="71.117" gradientTransform="matrix(1 0 0 -1 0 302)">
	<stop  offset="0" style="stop-color:#F9B233"/>
	<stop  offset="1" style="stop-color:#E9511B"/>
</linearGradient>
<path style="opacity:0.94;fill:none;stroke:url(#SVGID_00000096025517745684451780000014954235299024271276_);stroke-width:0.3;enable-background:new    ;" d="
	M235.2,80.1c20.6-4.4,43.9-22.5,60.7-10.2c16.4,11.9,1.6,38.4,4.9,58c3.1,18.2,18.2,34.4,13.8,52.4c-4.7,19.2-19.7,35.5-37.6,44.7
	c-17.6,9-38.9,9.6-58,4.4c-17.3-4.8-28.2-19.7-41.2-31.8c-12.5-11.6-31.7-20.6-33-37.4c-1.3-16.8,16.6-28.3,26.9-41.8
	c7.8-10.2,14.7-20.7,25.8-27.4C209,84,222.1,82.9,235.2,80.1z"/>
<linearGradient id="SVGID_00000065062084077246406700000017703807138838852541_" gradientUnits="userSpaceOnUse" x1="239.5788" y1="240.7215" x2="225.1478" y2="71.4616" gradientTransform="matrix(1 0 0 -1 0 302)">
	<stop  offset="0" style="stop-color:#F9B233"/>
	<stop  offset="1" style="stop-color:#E9511B"/>
</linearGradient>
<path style="opacity:0.95;fill:none;stroke:url(#SVGID_00000065062084077246406700000017703807138838852541_);stroke-width:0.3;enable-background:new    ;" d="
	M234.1,80.3c20.4-4.7,43.2-23.1,60.2-11.2c16.5,11.6,2.3,38.2,5.9,57.7c3.4,18.1,18.8,33.9,14.7,51.9c-4.3,19.2-18.9,35.6-36.6,45.1
	c-17.3,9.3-38.5,10.3-57.6,5.3c-17.3-4.5-28.4-19.1-41.6-30.9c-12.6-11.4-31.9-19.9-33.5-36.6c-1.6-16.7,16-28.4,26-42.1
	c7.5-10.3,14.2-20.9,25.1-27.7C208.1,84.6,221.1,83.3,234.1,80.3z"/>
<linearGradient id="SVGID_00000072985828419834438400000010781868911591638934_" gradientUnits="userSpaceOnUse" x1="238.194" y1="240.4783" x2="226.701" y2="71.8192" gradientTransform="matrix(1 0 0 -1 0 302)">
	<stop  offset="0" style="stop-color:#F9B233"/>
	<stop  offset="1" style="stop-color:#E9511B"/>
</linearGradient>
<path style="opacity:0.96;fill:none;stroke:url(#SVGID_00000072985828419834438400000010781868911591638934_);stroke-width:0.3;enable-background:new    ;" d="
	M233,80.5c20.2-5.1,42.6-23.8,59.7-12.2c16.6,11.2,2.9,38,6.9,57.3c3.7,17.9,19.3,33.5,15.5,51.4c-4,19.2-18.2,35.8-35.6,45.5
	c-17.1,9.5-38.1,10.9-57.2,6.3c-17.3-4.1-28.6-18.5-41.9-30.1c-12.8-11.1-32.1-19.3-34-35.9c-1.9-16.6,15.4-28.5,25.2-42.3
	c7.3-10.4,13.8-21,24.5-28C207.2,85.3,220.2,83.7,233,80.5z"/>
<linearGradient id="SVGID_00000022552401078814684720000017283404163308166034_" gradientUnits="userSpaceOnUse" x1="236.8068" y1="240.1998" x2="228.2258" y2="72.1893" gradientTransform="matrix(1 0 0 -1 0 302)">
	<stop  offset="0" style="stop-color:#F9B233"/>
	<stop  offset="1" style="stop-color:#E9511B"/>
</linearGradient>
<path style="opacity:0.97;fill:none;stroke:url(#SVGID_00000022552401078814684720000017283404163308166034_);stroke-width:0.3;enable-background:new    ;" d="
	M231.9,80.8c20-5.4,42-24.4,59.2-13.1c16.7,10.9,3.6,37.7,7.9,56.9c4,17.8,19.8,33,16.4,50.9c-3.6,19.1-17.5,35.9-34.6,45.9
	c-16.8,9.8-37.7,11.4-56.8,7.2c-17.3-3.8-28.8-18-42.2-29.2c-12.9-10.8-32.3-18.7-34.4-35.1c-2.2-16.5,14.9-28.7,24.3-42.5
	c7.1-10.4,13.3-21.1,23.9-28.3C206.3,86,219.2,84.2,231.9,80.8z"/>
<linearGradient id="SVGID_00000087370859104638812000000000129305564943877801_" gradientUnits="userSpaceOnUse" x1="235.4177" y1="239.8846" x2="229.7237" y2="72.5703" gradientTransform="matrix(1 0 0 -1 0 302)">
	<stop  offset="0" style="stop-color:#F9B233"/>
	<stop  offset="1" style="stop-color:#E9511B"/>
</linearGradient>
<path style="opacity:0.98;fill:none;stroke:url(#SVGID_00000087370859104638812000000000129305564943877801_);stroke-width:0.3;enable-background:new    ;" d="
	M230.8,81.1c19.8-5.7,41.3-25,58.7-14.1c16.8,10.6,4.2,37.5,8.9,56.5c4.3,17.6,20.3,32.5,17.2,50.4c-3.3,19.1-16.8,36-33.6,46.2
	c-16.6,10-37.3,12-56.4,8.1c-17.2-3.5-29-17.4-42.5-28.4c-13-10.6-32.4-18-34.9-34.4c-2.4-16.4,14.3-28.8,23.4-42.7
	c6.9-10.5,12.9-21.3,23.3-28.6C205.4,86.7,218.2,84.7,230.8,81.1z"/>
<linearGradient id="SVGID_00000000926647329964332560000017004108475103568059_" gradientUnits="userSpaceOnUse" x1="234.0229" y1="239.5321" x2="231.1899" y2="72.9605" gradientTransform="matrix(1 0 0 -1 0 302)">
	<stop  offset="0" style="stop-color:#F9B233"/>
	<stop  offset="1" style="stop-color:#E9511B"/>
</linearGradient>
<path style="opacity:0.99;fill:none;stroke:url(#SVGID_00000000926647329964332560000017004108475103568059_);stroke-width:0.3;enable-background:new    ;" d="
	M229.6,81.4c19.6-6,40.7-25.5,58.1-15c16.9,10.2,4.9,37.2,9.8,56c4.6,17.5,20.7,32,18,49.8c-2.9,19.1-16,36.1-32.7,46.6
	c-16.3,10.2-36.9,12.6-56,9c-17.2-3.2-29.2-16.8-42.8-27.5c-13.2-10.3-32.6-17.4-35.3-33.6c-2.7-16.2,13.7-28.9,22.5-42.9
	c6.7-10.6,12.5-21.4,22.6-28.8C204.5,87.4,217.2,85.2,229.6,81.4z"/>
<linearGradient id="SVGID_00000142149864591642886830000010482685562091056277_" gradientUnits="userSpaceOnUse" x1="232.6297" y1="239.1444" x2="232.6297" y2="73.361" gradientTransform="matrix(1 0 0 -1 0 302)">
	<stop  offset="0" style="stop-color:#F9B233"/>
	<stop  offset="1" style="stop-color:#E9511B"/>
</linearGradient>
<path style="fill:none;stroke:url(#SVGID_00000142149864591642886830000010482685562091056277_);stroke-width:0.3;" d="M228.5,81.8
	c19.4-6.3,40-26.1,57.6-15.9c17,9.9,5.5,36.9,10.8,55.6c4.9,17.3,21.2,31.4,18.8,49.3c-2.5,19-15.3,36.2-31.7,46.9
	c-16,10.4-36.5,13.2-55.5,9.9c-17.2-2.9-29.3-16.2-43.1-26.6c-13.3-10-32.7-16.7-35.7-32.8c-3-16.1,13.1-28.9,21.6-43.1
	c6.4-10.6,12-21.5,22-29C203.6,88.2,216.2,85.8,228.5,81.8z"/>
</svg>
