<svg width="61" height="36" viewBox="0 0 61 36" fill="none" xmlns="http://www.w3.org/2000/svg">
<path d="M42.6252 0.0108201C38.3645 0.0167874 34.2373 1.46716 30.9448 4.11553L30.4582 4.48515C27.8305 2.21722 24.5946 0.733778 21.1331 0.210328C17.6716 -0.313122 14.1295 0.145322 10.9257 1.53142C7.72194 2.91753 4.9906 5.17328 3.05481 8.03184C1.11903 10.8904 0.0598121 14.2321 0.0024641 17.6617C-0.0548839 21.0913 0.892039 24.4652 2.73121 27.3843C4.57038 30.3034 7.22484 32.6455 10.3806 34.1336C13.5363 35.6217 17.0612 36.1934 20.5383 35.7813C24.0154 35.3691 27.2992 33.9902 30.0013 31.8077L30.4979 31.4381C33.826 34.3739 38.1461 35.999 42.6252 36C47.4985 36 52.1722 34.1041 55.6182 30.7295C59.0641 27.3549 61 22.7779 61 18.0054C61 13.2329 59.0641 8.65595 55.6182 5.28131C52.1722 1.90667 47.4985 0.0108201 42.6252 0.0108201ZM18.3209 32.761C15.8227 32.7577 13.3642 32.1482 11.1654 30.9869C8.96651 29.8256 7.09583 28.1488 5.7206 26.1063C4.34536 24.0638 3.50845 21.7194 3.2847 19.2827C3.06095 16.846 3.45734 14.393 4.43842 12.143C5.4195 9.89301 6.95469 7.91622 8.9067 6.38938C10.8587 4.86255 13.1667 3.83328 15.6242 3.39361C18.0818 2.95394 20.6123 3.11759 22.9895 3.86991C25.3666 4.62223 27.5164 5.93978 29.2464 7.70472L29.594 8.08407C29.7828 8.29806 30.0807 8.66768 30.4582 9.19292C30.9846 9.93216 31.4514 10.6325 31.5209 10.7784C32.7614 12.9758 33.4108 15.446 33.4081 17.9568C33.4061 19.7367 33.9433 21.4772 34.9516 22.9581C35.9599 24.4389 37.3941 25.5936 39.0727 26.2761C40.7513 26.9586 42.5989 27.1382 44.3817 26.7921C46.1645 26.446 47.8025 25.5899 49.0884 24.332C50.3743 23.0741 51.2503 21.4709 51.6056 19.7254C51.9609 17.9798 51.7795 16.1702 51.0844 14.5256C50.3893 12.881 49.2118 11.4753 47.7007 10.4862C46.1896 9.49714 44.413 8.96921 42.5954 8.96921C40.4654 8.972 38.4007 9.68949 36.7453 11.0021C36.339 11.3283 35.9604 11.6861 35.613 12.0721C35.458 11.604 35.2654 11.1486 35.0369 10.7103C35.3051 10.4866 35.5733 10.224 35.8713 10.0002C37.7696 8.47398 40.1492 7.63877 42.6054 7.63664C44.6933 7.63086 46.736 8.23203 48.4747 9.364C50.2135 10.496 51.5701 12.1078 52.3727 13.9954C53.1754 15.883 53.3879 17.9614 52.9835 19.9674C52.5791 21.9734 51.5758 23.8167 50.1008 25.2639C48.6259 26.7111 46.7455 27.697 44.6979 28.0969C42.6503 28.4967 40.5276 28.2925 38.5986 27.51C36.6696 26.7276 35.0212 25.4021 33.862 23.7014C32.7028 22.0008 32.0851 20.0015 32.0871 17.9568C32.089 15.2889 31.2832 12.6804 29.7716 10.4609C28.2599 8.24146 26.1102 6.51075 23.5943 5.48759C21.0784 4.46442 18.3092 4.19473 15.6367 4.71261C12.9643 5.23049 10.5087 6.51269 8.5803 8.39712C6.6519 10.2815 5.3373 12.6836 4.8027 15.2996C4.2681 17.9156 4.5375 20.6281 5.57684 23.0941C6.61619 25.5602 8.37881 27.6692 10.6419 29.1543C12.9049 30.6395 15.5669 31.4343 18.2911 31.4381C21.4923 31.432 24.5908 30.331 27.0514 28.3256L27.1706 28.2477C27.2794 28.1748 27.3794 28.09 27.4685 27.9948C27.697 28.3256 28.0049 28.6952 28.2631 29.0648L27.9254 29.3274C25.2475 31.5621 21.8391 32.7806 18.3209 32.761ZM36.5765 16.4783C37.0751 15.3129 37.8396 14.2748 38.8112 13.4435C39.8885 12.5834 41.2353 12.1128 42.6252 12.111C43.8039 12.111 44.9561 12.4532 45.9361 13.0945C46.9161 13.7358 47.6799 14.6473 48.131 15.7137C48.582 16.7801 48.7001 17.9535 48.4701 19.0856C48.2402 20.2177 47.6726 21.2576 46.8392 22.0738C46.0057 22.89 44.9439 23.4458 43.7879 23.671C42.6318 23.8962 41.4336 23.7806 40.3447 23.3389C39.2557 22.8972 38.325 22.1491 37.6702 21.1894C37.0154 20.2297 36.6658 19.1013 36.6658 17.9471C36.6559 17.5191 36.6162 16.9646 36.5765 16.4783ZM42.6252 32.761C40.5975 32.7628 38.5904 32.3611 36.726 31.5802C34.8615 30.7994 33.1786 29.6557 31.7792 28.2186L31.7096 28.1505L31.6302 28.0727L31.5507 28.0046C30.781 27.1113 30.0867 26.1582 29.4749 25.1546C28.2332 22.9542 27.5838 20.4805 27.5877 17.9665C27.5945 15.9052 26.8838 13.9031 25.5727 12.2905C24.2616 10.6779 22.4284 9.55101 20.3755 9.09571C18.3226 8.6404 16.1725 8.88386 14.2799 9.78594C12.3873 10.688 10.8651 12.1948 9.96432 14.0579C9.06359 15.921 8.83812 18.029 9.32508 20.0345C9.81205 22.0399 10.9824 23.8229 12.6431 25.0895C14.3037 26.356 16.3556 27.0305 18.4603 27.0017C20.565 26.9729 22.5968 26.2424 24.2207 24.9309C24.6165 24.6037 24.9944 24.2563 25.353 23.8901C25.5119 24.3376 25.7006 24.785 25.8893 25.2227C25.6211 25.4853 25.353 25.709 25.0947 25.9619C23.22 27.4721 20.8676 28.2973 18.4401 28.2964C16.3493 28.3118 14.301 27.7183 12.5553 26.5914C10.8096 25.4645 9.44524 23.8549 8.63556 21.967C7.82587 20.0792 7.60736 17.9983 8.00776 15.9886C8.40816 13.9789 9.40942 12.1311 10.8844 10.6798C12.3593 9.22849 14.2414 8.23921 16.2917 7.83759C18.3419 7.43596 20.4678 7.64011 22.3993 8.42409C24.3309 9.20808 25.9809 10.5365 27.1399 12.2408C28.2989 13.945 28.9146 15.9481 28.9087 17.9957C28.9087 20.6585 29.7145 23.2615 31.2243 25.4761C32.7341 27.6906 34.8802 29.4173 37.3915 30.4381C39.9029 31.4588 42.6667 31.7279 45.3341 31.2112C48.0015 30.6946 50.4526 29.4154 52.3781 27.5352C54.3035 25.6551 55.6168 23.2583 56.152 20.6476C56.6873 18.037 56.4205 15.3295 55.3854 12.8672C54.3504 10.4049 52.5934 8.29827 50.3364 6.81333C48.0794 5.32838 45.4237 4.53175 42.7047 4.52406C39.7971 4.53059 36.9665 5.43985 34.6198 7.12112L34.5403 7.1892C34.3577 7.31631 34.182 7.45267 34.0139 7.59773C33.8649 7.74363 33.6762 7.86035 33.5173 8.00625C33.4048 7.82543 33.2787 7.65311 33.1399 7.49073C32.9909 7.30592 32.8816 7.12112 32.7227 6.93631L33.0704 6.67368C34.9311 5.14836 37.1403 4.0854 39.5102 3.57509C41.8802 3.06477 44.3409 3.12219 46.6834 3.74246C49.0258 4.36273 51.1808 5.52752 52.9653 7.1379C54.7497 8.74827 56.1109 10.7566 56.9332 12.9924C57.7555 15.2282 58.0146 17.6253 57.6885 19.9801C57.3624 22.3349 56.4607 24.5779 55.0601 26.5184C53.6595 28.459 51.8013 30.0398 49.6434 31.1266C47.4854 32.2134 45.0915 32.7741 42.665 32.761H42.6252ZM24.3697 19.8535C23.7778 20.8521 23.0112 21.741 22.1051 22.4797C21.0262 23.3371 19.6804 23.8073 18.2911 23.8123C17.1124 23.8123 15.9602 23.47 14.9802 22.8288C14.0002 22.1875 13.2364 21.276 12.7853 20.2096C12.3343 19.1432 12.2163 17.9698 12.4462 16.8377C12.6761 15.7056 13.2437 14.6657 14.0772 13.8495C14.9106 13.0333 15.9725 12.4775 17.1285 12.2523C18.2845 12.0271 19.4827 12.1427 20.5716 12.5844C21.6606 13.0261 22.5913 13.7741 23.2461 14.7339C23.901 15.6936 24.2505 16.822 24.2505 17.9762L24.3697 19.8535Z" fill="url(#paint0_linear_1142_6413)"/>
<defs>
<linearGradient id="paint0_linear_1142_6413" x1="30.478" y1="35.8249" x2="30.478" y2="0.283169" gradientUnits="userSpaceOnUse">
<stop stop-color="#E94F1D"/>
<stop offset="1" stop-color="#FAB334"/>
</linearGradient>
</defs>
</svg>
